[
    {
        "especialidad": " Angiografía RM",
        "examen": "Angiografía cerebral por RM"
    },
    {
        "especialidad": " Angiografía RM",
        "examen": "Angiografía de oídos por RM"
    },
    {
        "especialidad": " Angiografía RM",
        "examen": "Angiografía de orbitas por RM"
    },
    {
        "especialidad": " Angiografía RM",
        "examen": "Angiografía de cuello (Carotidea) por RM"
    },
    {
        "especialidad": " Angiografía RM",
        "examen": "Angiografía maxilofacial por RM"
    },
    {
        "especialidad": " Angiografía RM",
        "examen": "Angiografia Vena Cava"
    },
    {
        "especialidad": " Angiografía RM",
        "examen": "Angiografía aorta toráxica por RM"
    },
    {
        "especialidad": " Angiografía RM",
        "examen": "Angiografía Dorsal por RM"
    },
    {
        "especialidad": " Angiografía RM",
        "examen": "Angiografía pulmonar por RM"
    },
    {
        "especialidad": " Angiografía RM",
        "examen": "Angiografía de la médula espinal por RM"
    },
    {
        "especialidad": " Angiografía RM",
        "examen": "Angiografía Ilíaco-femoral por RM"
    },
    {
        "especialidad": " Angiografía RM",
        "examen": "Angiografía miembros superiores"
    },
    {
        "especialidad": " Angiografía RM",
        "examen": "Angioresonancia de Aorta y Miembros Inferiores 3 Regiones."
    },
    {
        "especialidad": " Angiografía RM",
        "examen": "Angiografía renal por RM",
        "etiquetas": "riñon"
    },
    {
        "especialidad": " Angiografía RM",
        "examen": "Angiografía hepatica por RM"
    },
    {
        "especialidad": " Angiografía RM",
        "examen": "Angiografía aorta abdominal"
    },
    {
        "especialidad": " Angiografía RM",
        "examen": "Resonancia Magnética de Esplenoportograma"
    },
    {
        "especialidad": " Angiografía TAC",
        "examen": "Angiotomografía iliaco-femoral"
    },
    {
        "especialidad": " Angiografía TAC",
        "examen": "Angiotomografía Venacava Superior"
    },
    {
        "especialidad": " Angiografía TAC",
        "examen": "Angiotomografía Arco Aortico en 3D"
    },
    {
        "especialidad": " Angiografía TAC",
        "examen": "Angiotomografía de Miembros Inferiores"
    },
    {
        "especialidad": " Angiografía TAC",
        "examen": "Angiotomografia de Miembros Inferiores de Tres Regiones"
    },
    {
        "especialidad": " Angiografía TAC",
        "examen": "Angiotomografia Columna Dorsal"
    },
    {
        "especialidad": " Angiografía TAC",
        "examen": "Angiotomografía cerebral"
    },
    {
        "especialidad": " Angiografía TAC",
        "examen": "Antiotomografia de Cara"
    },
    {
        "especialidad": " Angiografía TAC",
        "examen": "Angiotomografía carotidea o de cuello"
    },
    {
        "especialidad": " Angiografía TAC",
        "examen": "Angiotomografía toráxica"
    },
    {
        "especialidad": " Angiografía TAC",
        "examen": "Angiotomografía Subclavia o Perculo Toráxica"
    },
    {
        "especialidad": " Angiografía TAC",
        "examen": "Angiotomografía Aorto Iliacos"
    },
    {
        "especialidad": " Angiografía TAC",
        "examen": "Angiotomografia Pancreatica Trifasica en 3D"
    },
    {
        "especialidad": " Angiografía TAC",
        "examen": "Angiotomografía abdominal"
    },
    {
        "especialidad": " Angiografía TAC",
        "examen": "Angiotomografía renal",
        "etiquetas": "riñon"
    },
    {
        "especialidad": " Angiografía TAC",
        "examen": "Angiotomografia Venocavograma"
    },
    {
        "especialidad": " Angiografía TAC",
        "examen": "Angio Tomografia Aorta Abdominal y de Miembros Inferiiores (3 Regiones)"
    },
    {
        "especialidad": " Angiografía TAC",
        "examen": "Tomografía Computada Angiotomografia de Orbitas Volumetrica"
    },
    {
        "especialidad": " Angiografía TAC",
        "examen": "Angiotomografia de Miembros Superiores"
    },
    {
        "especialidad": " Angiografía TAC",
        "examen": "TAC Tomografia de Arterias Coronarias"
    },
    {
        "especialidad": " Cardiología",
        "examen": "Holter Cardiaco 24 horas"
    },
    {
        "especialidad": " Cardiología",
        "examen": "Holter de Presion Arterial 24 horas"
    },
    {
        "especialidad": " Cardiología",
        "examen": "Holter Cardiaco 48 horas"
    },
    {
        "especialidad": " Cardiología",
        "examen": "Aorta abdominal"
    },
    {
        "especialidad": " Cardiología",
        "examen": "Podometro"
    },
    {
        "especialidad": " Cardiología",
        "examen": "Ecostress con dobutamina"
    },
    {
        "especialidad": " Cardiología",
        "examen": "Ecostress con banda"
    },
    {
        "especialidad": " Cardiología",
        "examen": "Prueba de esfuerzo"
    },
    {
        "especialidad": " Cardiología",
        "examen": "Ecocardiograma"
    },
    {
        "especialidad": " Cardiología",
        "examen": "Electrocardiograma"
    },
    {
        "especialidad": " Cardiología",
        "examen": "Evaluación cardiovascular"
    },
    {
        "especialidad": " Cardiología",
        "examen": "Electrocardiograma con prueba de esfuerzo"
    },
    {
        "especialidad": " Cardiología",
        "examen": "Ecocardiograma Contrastado"
    },
    {
        "especialidad": " Densitometría Osea",
        "examen": "Densitometría Osea de Cadera y Columna"
    },
    {
        "especialidad": " Densitometría Osea",
        "examen": "Densitometria de Cadera"
    },
    {
        "especialidad": " Densitometría Osea",
        "examen": "Densitometria de Columna"
    },
    {
        "especialidad": " Densitometría Osea",
        "examen": "Densitometria Dual Femur"
    },
    {
        "especialidad": " Densitometría Osea",
        "examen": "Densitometria Osea Completa"
    },
    {
        "especialidad": " Densitometría Osea",
        "examen": "Densitometria Un Femur"
    },
    {
        "especialidad": " Densitometría Osea",
        "examen": "Densitometría de Pie"
    },
    {
        "especialidad": " Densitometría Osea",
        "examen": "Densitometria Visita Screening de Cadera"
    },
    {
        "especialidad": " Densitometría Osea",
        "examen": "Densitrometria Visita Dia 1 de Columna"
    },
    {
        "especialidad": " Doppler Color",
        "examen": "Doppler 1 Miembro Arterial o Venoso Superior"
    },
    {
        "especialidad": " Doppler Color",
        "examen": "Doppler 1 Miembro Arterial o Venoso Inferior"
    },
    {
        "especialidad": " Doppler Color",
        "examen": "Doppler Endometrio"
    },
    {
        "especialidad": " Doppler Color",
        "examen": "Doppler Pelvico",
        "etiquetas": "pelvis"
    },
    {
        "especialidad": " Doppler Color",
        "examen": "Doppler venoso de ambos miembros superiores"
    },
    {
        "especialidad": " Doppler Color",
        "examen": "Doppler venoso de ambos miembros inferiores"
    },
    {
        "especialidad": " Doppler Color",
        "examen": "Doppler arterial de ambos miembros superiores"
    },
    {
        "especialidad": " Doppler Color",
        "examen": "Doppler arterial de ambos miembros inferiores"
    },
    {
        "especialidad": " Doppler Color",
        "examen": "Doppler arterial y venoso de ambos miembros superiores"
    },
    {
        "especialidad": " Doppler Color",
        "examen": "Doppler arterial y venoso de ambos miembros inferiores"
    },
    {
        "especialidad": " Doppler Color",
        "examen": "Doppler Obstétrico"
    },
    {
        "especialidad": " Doppler Color",
        "examen": "Doppler Testicular",
        "etiquetas": "testiculo"
    },
    {
        "especialidad": " Doppler Color",
        "examen": "Doppler Renal",
        "etiquetas": "riñon"
    },
    {
        "especialidad": " Doppler Color",
        "examen": "Doppler Hígado"
    },
    {
        "especialidad": " Doppler Color",
        "examen": "Doppler Transcraneano"
    },
    {
        "especialidad": " Doppler Color",
        "examen": "Doppler Carotideo bilateral"
    },
    {
        "especialidad": " Doppler Color",
        "examen": "Doppler de Tiroideo"
    },
    {
        "especialidad": " Electromiografía",
        "examen": "Miembro Superior Derecho"
    },
    {
        "especialidad": " Electromiografía",
        "examen": "Miembro Superior Derecho, Columna Cervical"
    },
    {
        "especialidad": " Electromiografía",
        "examen": "Miembro Superior Izquierdo"
    },
    {
        "especialidad": " Electromiografía",
        "examen": "Miembro Superior Izquierdo, Columna Cervical"
    },
    {
        "especialidad": " Electromiografía",
        "examen": "Ambos Miembros Superiores"
    },
    {
        "especialidad": " Electromiografía",
        "examen": "Ambos Miembros Superiores, Columna Cervical"
    },
    {
        "especialidad": " Electromiografía",
        "examen": "Miembro Inferiror Derecho"
    },
    {
        "especialidad": " Electromiografía",
        "examen": "Miembro Inferiror Derecho, Columna Lumbar"
    },
    {
        "especialidad": " Electromiografía",
        "examen": "Miembro Inferiror Izquierdo"
    },
    {
        "especialidad": " Electromiografía",
        "examen": "Miembro Inferiror Izquierdo, Columna Lumbar"
    },
    {
        "especialidad": " Electromiografía",
        "examen": "Ambos Miembros Inferiores"
    },
    {
        "especialidad": " Electromiografía",
        "examen": "Ambos Miembros Inferiores, Columna Lumbar"
    },
    {
        "especialidad": " Electromiografía",
        "examen": "Facial Izquierdo"
    },
    {
        "especialidad": " Electromiografía",
        "examen": "Facial Derecho"
    },
    {
        "especialidad": " Electromiografía",
        "examen": "Facial Bilateral"
    },
    {
        "especialidad": " Electromiografía",
        "examen": "Facial Derecho, ref. Parpadeo"
    },
    {
        "especialidad": " Electromiografía",
        "examen": "Facial Izquierdo, ref. Parpadeo"
    },
    {
        "especialidad": " Electromiografía",
        "examen": "Prueba de EATON-LAMBERT Derecha"
    },
    {
        "especialidad": " Electromiografía",
        "examen": "Prueba de EATON-LAMBERT Izquierda"
    },
    {
        "especialidad": " Electromiografía",
        "examen": "Prueba de EATON-LAMBERT Bilateral"
    },
    {
        "especialidad": " Electromiografía",
        "examen": "Potenciales evocados somatosensoriales 2 extremidades"
    },
    {
        "especialidad": " Electromiografía",
        "examen": "Potenciales evocados somatosensoriales 4 extremidades"
    },
    {
        "especialidad": " Electromiografía",
        "examen": "Potenciales evocados auditivos visuales"
    },
    {
        "especialidad": " Electromiografía",
        "examen": "Estimulacion Repetitiva Test de Jolly"
    },
    {
        "especialidad": " Laboratorio Clínico",
        "examen": "Alergeno A (Un Alergeno)"
    },
    {
        "especialidad": " Laboratorio Clínico",
        "examen": "Intolerancia Alimenticia IgG"
    },
    {
        "especialidad": " Laboratorio Clínico",
        "examen": "Panel Alergeno de Leche"
    },
    {
        "especialidad": " Laboratorio Clínico",
        "examen": "Panel Cardiaco"
    },
    {
        "especialidad": " Laboratorio Clínico",
        "examen": "Panel de Alergenos Pediatrico"
    },
    {
        "especialidad": " Laboratorio Clínico",
        "examen": "Panel Alergenos Alimenticios Corporacion Pediatrica"
    },
    {
        "especialidad": " Laboratorio Clínico",
        "examen": "Panel Alergenos Mohos"
    },
    {
        "especialidad": " Laboratorio Clínico",
        "examen": "Panel Alergenos Inhalantes Corporacion Pediatrica"
    },
    {
        "especialidad": " Laboratorio Clínico",
        "examen": "Panel Alergenos (alimenticios e inhalantes) Corporación Pediátrica"
    },
    {
        "especialidad": " Laboratorio Clínico",
        "examen": "Cultivo de ambientes"
    },
    {
        "especialidad": " Laboratorio Clínico",
        "examen": "Material Hemocultivos"
    },
    {
        "especialidad": " Laboratorio Clínico",
        "examen": "Porfobilinogeno en Orina",
        "etiquetas": "orina"
    },
    {
        "especialidad": " Laboratorio Clínico",
        "examen": "Retracción del Coágulo"
    },
    {
        "especialidad": " Laboratorio Clínico",
        "examen": "Sodio, Orina al Azar",
        "etiquetas": "orina"
    },
    {
        "especialidad": " Laboratorio Clínico",
        "examen": "Potasio, Orina Al Azar",
        "etiquetas": "orina"
    },
    {
        "especialidad": " Laboratorio Clínico",
        "examen": "Magnesio, Orina de 24 Horas",
        "etiquetas": "orina"
    },
    {
        "especialidad": " Laboratorio Clínico",
        "examen": "Fósforo, orina simple",
        "etiquetas": "orina"
    },
    {
        "especialidad": " Laboratorio Clínico",
        "examen": "Epstein Barr Virus, Anticuerpos IgG"
    },
    {
        "especialidad": " Laboratorio Clínico",
        "examen": "Anti SS-A / Ro, Anticuerpos"
    },
    {
        "especialidad": " Laboratorio Clínico",
        "examen": "Anti SS-B / La, Anticuerpos"
    },
    {
        "especialidad": " Laboratorio Clínico",
        "examen": "T3 Libre (FT3)"
    },
    {
        "especialidad": " Laboratorio Clínico",
        "examen": "HE4"
    },
    {
        "especialidad": " Laboratorio Clínico",
        "examen": "Epstein Barr Virus, Panel"
    },
    {
        "especialidad": " Laboratorio Clínico",
        "examen": "Mycobacterium Tuberculosis IgM, Anticuerpos"
    },
    {
        "especialidad": " Laboratorio Clínico",
        "examen": "Anti Core Total Hepatitis B, Anticuerpos"
    },
    {
        "especialidad": " Laboratorio Clínico",
        "examen": "Hepatitis B, Panel"
    },
    {
        "especialidad": " Laboratorio Clínico",
        "examen": "Vibrio Cholerae, Cultivo"
    },
    {
        "especialidad": " Laboratorio Clínico",
        "examen": "Glucosa 3 hpp"
    },
    {
        "especialidad": " Laboratorio Clínico",
        "examen": "Bandas Oligoclonales"
    },
    {
        "especialidad": " Laboratorio Clínico",
        "examen": "Colesterol VLDL"
    },
    {
        "especialidad": " Laboratorio Clínico",
        "examen": "Globulinas"
    },
    {
        "especialidad": " Laboratorio Clínico",
        "examen": "Glucosa, 1 hpp"
    },
    {
        "especialidad": " Laboratorio Clínico",
        "examen": "Lípidos Totales",
        "etiquetas": "lipidos"
    },
    {
        "especialidad": " Laboratorio Clínico",
        "examen": "Fosfolipidos",
        "etiquetas": "lipidos"
    },
    {
        "especialidad": " Laboratorio Clínico",
        "examen": "Hepatitis A, B y C, Panel"
    },
    {
        "especialidad": " Laboratorio Clínico",
        "examen": "Proteínas Totales y Relación A / G"
    },
    {
        "especialidad": " Laboratorio Clínico",
        "examen": "Amilasa, Orina al Azar",
        "etiquetas": "orina"
    },
    {
        "especialidad": " Laboratorio Clínico",
        "examen": "Hepatitis A, Panel"
    },
    {
        "especialidad": " Laboratorio Clínico",
        "examen": "Anticitrulinados, Anticuerpos / Péptidos Citrulinados Cíclicos / CCP"
    },
    {
        "especialidad": " Laboratorio Clínico",
        "examen": "Bilirrubina Directa"
    },
    {
        "especialidad": " Laboratorio Clínico",
        "examen": "Peptido C Curva de 2 horas"
    },
    {
        "especialidad": " Laboratorio Clínico",
        "examen": "Péptido C / Curva de 5 horas"
    },
    {
        "especialidad": " Laboratorio Clínico",
        "examen": "Péptido C / Curva de 3 horas"
    },
    {
        "especialidad": " Laboratorio Clínico",
        "examen": "Glucosa, Curva de Tolerancia 3 Horas"
    },
    {
        "especialidad": " Laboratorio Clínico",
        "examen": "Insulina, Curva de 3 Horas"
    },
    {
        "especialidad": " Laboratorio Clínico",
        "examen": "Insulina, Curva de 2 horas"
    },
    {
        "especialidad": " Laboratorio Clínico",
        "examen": "Bilirrubina Indirecta"
    },
    {
        "especialidad": " Laboratorio Clínico",
        "examen": "Toma de Muestra a Domicilio S/T"
    },
    {
        "especialidad": " Laboratorio Clínico",
        "examen": "Meningitis, Panel"
    },
    {
        "especialidad": " Laboratorio Clínico",
        "examen": "C-Telopéptido"
    },
    {
        "especialidad": " Laboratorio Clínico",
        "examen": "Proteína C Reactiva de Alta Sensibilidad (HS PCR)"
    },
    {
        "especialidad": " Laboratorio Clínico",
        "examen": "Amebiano, Antígeno en Heces",
        "etiquetas": "heces"
    },
    {
        "especialidad": " Laboratorio Clínico",
        "examen": "Insulina 2 horas Post Pandrial"
    },
    {
        "especialidad": " Laboratorio Clínico",
        "examen": "Insulina 1 hpp"
    },
    {
        "especialidad": " Laboratorio Clínico",
        "examen": "Resistencia a Insulina"
    },
    {
        "especialidad": " Laboratorio Clínico",
        "examen": "Análisis de Líquido Cefalorraquídeo"
    },
    {
        "especialidad": " Laboratorio Clínico",
        "examen": "Antígenos aviarios"
    },
    {
        "especialidad": " Laboratorio Clínico",
        "examen": "Gliadina Anticuerpos IgA"
    },
    {
        "especialidad": " Laboratorio Clínico",
        "examen": "Gliadina Anticuerpos IgG"
    },
    {
        "especialidad": " Laboratorio Clínico",
        "examen": "Urocultivo pediátrico"
    },
    {
        "especialidad": " Laboratorio Clínico",
        "examen": "Fraccion Kappa y lambda"
    },
    {
        "especialidad": " Laboratorio Clínico",
        "examen": "Prueba de Embarazo en Orina / Gravindex",
        "etiquetas": "orina"
    },
    {
        "especialidad": " Laboratorio Clínico",
        "examen": "Serotoninas, Orina de 24 Horas",
        "etiquetas": "orina"
    },
    {
        "especialidad": " Laboratorio Clínico",
        "examen": "Heces, Muestras Seriadas (2)",
        "etiquetas": "heces"
    },
    {
        "especialidad": " Laboratorio Clínico",
        "examen": "Sangre Oculta, Muestras Seriadas (2)",
        "etiquetas": "sangre"
    },
    {
        "especialidad": " Laboratorio Clínico",
        "examen": "Azul de Metileno/Leucocitos en heces",
        "etiquetas": "heces"
    },
    {
        "especialidad": " Laboratorio Clínico",
        "examen": "Enema Salino"
    },
    {
        "especialidad": " Laboratorio Clínico",
        "examen": "Criptosporidium, Investigación de (Heces)",
        "etiquetas": "heces"
    },
    {
        "especialidad": " Laboratorio Clínico",
        "examen": "Péptido Natriurético tipo B / BNP"
    },
    {
        "especialidad": " Laboratorio Clínico",
        "examen": "Cortisol PM"
    },
    {
        "especialidad": " Laboratorio Clínico",
        "examen": "ACTH (PM)"
    },
    {
        "especialidad": " Laboratorio Clínico",
        "examen": "Antígeno Prostático Fracción Libre"
    },
    {
        "especialidad": " Laboratorio Clínico",
        "examen": "Ca 15-3"
    },
    {
        "especialidad": " Laboratorio Clínico",
        "examen": "CA 19-9"
    },
    {
        "especialidad": " Laboratorio Clínico",
        "examen": "Proteinas, Inmunoelectroforesis de"
    },
    {
        "especialidad": " Laboratorio Clínico",
        "examen": "ANTIGENO DE HISTOCOMPATIBILIDAD (HLA-A, B y C)"
    },
    {
        "especialidad": " Laboratorio Clínico",
        "examen": "ANTIGENO DE HISTOCOMPATIBILIDAD (HLA/DR/DQ)"
    },
    {
        "especialidad": " Laboratorio Clínico",
        "examen": "Alfa 1 Glicoproteína Ácida"
    },
    {
        "especialidad": " Laboratorio Clínico",
        "examen": "Glucosa + Insulina / Ayunas y 2 hpp"
    },
    {
        "especialidad": " Laboratorio Clínico",
        "examen": "Glucosa con carga de 50 grs"
    },
    {
        "especialidad": " Laboratorio Clínico",
        "examen": "Glucosa, carga adicional"
    },
    {
        "especialidad": " Laboratorio Clínico",
        "examen": "Curva de Glucosa 2 horas"
    },
    {
        "especialidad": " Laboratorio Clínico",
        "examen": "Anticuerpos Anti Toxocara IgM"
    },
    {
        "especialidad": " Laboratorio Clínico",
        "examen": "Antígenos de Histocompatibilidad (1 donante adicional)"
    },
    {
        "especialidad": " Laboratorio Clínico",
        "examen": "Compatibilidad para transfusión sanguínea",
        "etiquetas": "sangre"
    },
    {
        "especialidad": " Laboratorio Clínico",
        "examen": "Pre Albumina"
    },
    {
        "especialidad": " Laboratorio Clínico",
        "examen": "Preparacion de Suero Autólogo"
    },
    {
        "especialidad": " Laboratorio Clínico",
        "examen": "Kit de sangre seca",
        "etiquetas": "sangre"
    },
    {
        "especialidad": " Laboratorio Clínico",
        "examen": "Captación de T3 / T uptake / CT3"
    },
    {
        "especialidad": " Laboratorio Clínico",
        "examen": "Drogas de Abuso, Panel"
    },
    {
        "especialidad": " Laboratorio Clínico",
        "examen": "Carbamazepina"
    },
    {
        "especialidad": " Laboratorio Clínico",
        "examen": "Ciclosporina",
        "etiquetas": "orina"
    },
    {
        "especialidad": " Laboratorio Clínico",
        "examen": "Digoxina"
    },
    {
        "especialidad": " Laboratorio Clínico",
        "examen": "Acido Valpróico"
    },
    {
        "especialidad": " Laboratorio Clínico",
        "examen": "Litio"
    },
    {
        "especialidad": " Laboratorio Clínico",
        "examen": "Fenobarbital"
    },
    {
        "especialidad": " Laboratorio Clínico",
        "examen": "Fenitoína"
    },
    {
        "especialidad": " Laboratorio Clínico",
        "examen": "Teofilina"
    },
    {
        "especialidad": " Laboratorio Clínico",
        "examen": "Clasificación de Anemia"
    },
    {
        "especialidad": " Laboratorio Clínico",
        "examen": "TACROLIMUS, EN SANGRE",
        "etiquetas": "sangre"
    },
    {
        "especialidad": " Laboratorio Clínico",
        "examen": "Orina Completa",
        "etiquetas": "orina"
    },
    {
        "especialidad": " Laboratorio Clínico",
        "examen": "Azúcares Reductores en Heces",
        "etiquetas": "heces"
    },
    {
        "especialidad": " Laboratorio Clínico",
        "examen": "Micobacterium Tuberculosis, Antígeno"
    },
    {
        "especialidad": " Laboratorio Clínico",
        "examen": "Electroforesis de Hemoglobina"
    },
    {
        "especialidad": " Laboratorio Clínico",
        "examen": "ACTH"
    },
    {
        "especialidad": " Laboratorio Clínico",
        "examen": "Albúmina Sérica"
    },
    {
        "especialidad": " Laboratorio Clínico",
        "examen": "Albumina en Orina 24 horas",
        "etiquetas": "orina"
    },
    {
        "especialidad": " Laboratorio Clínico",
        "examen": "Microalbuminuria"
    },
    {
        "especialidad": " Laboratorio Clínico",
        "examen": "Alcohol en sangre",
        "etiquetas": "sangre"
    },
    {
        "especialidad": " Laboratorio Clínico",
        "examen": "Aldolasa"
    },
    {
        "especialidad": " Laboratorio Clínico",
        "examen": "Alfa 1 antitripsina"
    },
    {
        "especialidad": " Laboratorio Clínico",
        "examen": "Alfa Fetoproteína / AFP"
    },
    {
        "especialidad": " Laboratorio Clínico",
        "examen": "Amonio"
    },
    {
        "especialidad": " Laboratorio Clínico",
        "examen": "Actividad Factor VIII"
    },
    {
        "especialidad": " Laboratorio Clínico",
        "examen": "Anfetaminas (orina)",
        "etiquetas": "orina"
    },
    {
        "especialidad": " Laboratorio Clínico",
        "examen": "Amilasa"
    },
    {
        "especialidad": " Laboratorio Clínico",
        "examen": "Apolipoproteínas A y B"
    },
    {
        "especialidad": " Laboratorio Clínico",
        "examen": "Metales Pesados"
    },
    {
        "especialidad": " Laboratorio Clínico",
        "examen": "Beta 2-microglobulina"
    },
    {
        "especialidad": " Laboratorio Clínico",
        "examen": "Bilirrubina Total"
    },
    {
        "especialidad": " Laboratorio Clínico",
        "examen": "Vitamina D"
    },
    {
        "especialidad": " Laboratorio Clínico",
        "examen": "Calcio"
    },
    {
        "especialidad": " Laboratorio Clínico",
        "examen": "Calcio ionizado"
    },
    {
        "especialidad": " Laboratorio Clínico",
        "examen": "Calcio, Orina de 24 Horas",
        "etiquetas": "orina"
    },
    {
        "especialidad": " Laboratorio Clínico",
        "examen": "Cálculos Urinarios, Análisis"
    },
    {
        "especialidad": " Laboratorio Clínico",
        "examen": "Bicarbonato"
    },
    {
        "especialidad": " Laboratorio Clínico",
        "examen": "Antígeno Carcinoembriónico / CEA"
    },
    {
        "especialidad": " Laboratorio Clínico",
        "examen": "Catecolaminas, Orina de 24 Horas",
        "etiquetas": "orina"
    },
    {
        "especialidad": " Laboratorio Clínico",
        "examen": "Ceruloplalsmina"
    },
    {
        "especialidad": " Laboratorio Clínico",
        "examen": "Cloruros"
    },
    {
        "especialidad": " Laboratorio Clínico",
        "examen": "Cloruros en Orina de 24 horas",
        "etiquetas": "orina"
    },
    {
        "especialidad": " Laboratorio Clínico",
        "examen": "Antibiograma de Levaduras"
    },
    {
        "especialidad": " Laboratorio Clínico",
        "examen": "Colesterol Total"
    },
    {
        "especialidad": " Laboratorio Clínico",
        "examen": "Colinesterasa"
    },
    {
        "especialidad": " Laboratorio Clínico",
        "examen": "Benzodiazepinas (orina)",
        "etiquetas": "orina"
    },
    {
        "especialidad": " Laboratorio Clínico",
        "examen": "Cobre (sangre)",
        "etiquetas": "sangre"
    },
    {
        "especialidad": " Laboratorio Clínico",
        "examen": "Cortisol AM"
    },
    {
        "especialidad": " Laboratorio Clínico",
        "examen": "Creatinfosfoquinasa / CPK / CPK Total"
    },
    {
        "especialidad": " Laboratorio Clínico",
        "examen": "Creatinfosfoquinasa, Fracción MM"
    },
    {
        "especialidad": " Laboratorio Clínico",
        "examen": "Creatinfosfoquinasa MB / CPK-MB"
    },
    {
        "especialidad": " Laboratorio Clínico",
        "examen": "Creatinina"
    },
    {
        "especialidad": " Laboratorio Clínico",
        "examen": "CREATININA para TAC y RM"
    },
    {
        "especialidad": " Laboratorio Clínico",
        "examen": "Creatinina en Orina de 24 Horas",
        "etiquetas": "orina"
    },
    {
        "especialidad": " Laboratorio Clínico",
        "examen": "Creatinina / Albumina en orina al azar",
        "etiquetas": "orina"
    },
    {
        "especialidad": " Laboratorio Clínico",
        "examen": "Depuración de Creatinina en Orina de 24 Horas",
        "etiquetas": "orina"
    },
    {
        "especialidad": " Laboratorio Clínico",
        "examen": "Crioglobulinas"
    },
    {
        "especialidad": " Laboratorio Clínico",
        "examen": "Cianuro"
    },
    {
        "especialidad": " Laboratorio Clínico",
        "examen": "Vitamina B - 12"
    },
    {
        "especialidad": " Laboratorio Clínico",
        "examen": "Dehidroepiandrosterona sulfato (DHEA-SO4)"
    },
    {
        "especialidad": " Laboratorio Clínico",
        "examen": "Estradiol"
    },
    {
        "especialidad": " Laboratorio Clínico",
        "examen": "Sudan III (Grasas en Heces)",
        "etiquetas": "heces"
    },
    {
        "especialidad": " Laboratorio Clínico",
        "examen": "Shigella en Heces",
        "etiquetas": "heces"
    },
    {
        "especialidad": " Laboratorio Clínico",
        "examen": "Ferritina"
    },
    {
        "especialidad": " Laboratorio Clínico",
        "examen": "Fibronectina Fetal"
    },
    {
        "especialidad": " Laboratorio Clínico",
        "examen": "Ácido Fólico"
    },
    {
        "especialidad": " Laboratorio Clínico",
        "examen": "SubClases de IgG"
    },
    {
        "especialidad": " Laboratorio Clínico",
        "examen": "IgG, IgM, IgA, Inmunoglobulinas"
    },
    {
        "especialidad": " Laboratorio Clínico",
        "examen": "IgE, Inmunoglobulina"
    },
    {
        "especialidad": " Laboratorio Clínico",
        "examen": "Glucosa, Ayunas"
    },
    {
        "especialidad": " Laboratorio Clínico",
        "examen": "Glucosa, 2 Hpp"
    },
    {
        "especialidad": " Laboratorio Clínico",
        "examen": "Lactosa, Curva de Tolerancia a"
    },
    {
        "especialidad": " Laboratorio Clínico",
        "examen": "Glucosa, Curva de Tolerancia de 5 Horas"
    },
    {
        "especialidad": " Laboratorio Clínico",
        "examen": "Gamma Glutamil Transferasa / GGT"
    },
    {
        "especialidad": " Laboratorio Clínico",
        "examen": "Fructosamina"
    },
    {
        "especialidad": " Laboratorio Clínico",
        "examen": "Hormona Folículo Estimulante / FSH"
    },
    {
        "especialidad": " Laboratorio Clínico",
        "examen": "Hormona Luteinizante / LH"
    },
    {
        "especialidad": " Laboratorio Clínico",
        "examen": "Hormona del crecimiento / HGH"
    },
    {
        "especialidad": " Laboratorio Clínico",
        "examen": "CURVA DE HORMONA DEL CRECIMIENTO"
    },
    {
        "especialidad": " Laboratorio Clínico",
        "examen": "Panel Factor de Crecimiento Insulinico"
    },
    {
        "especialidad": " Laboratorio Clínico",
        "examen": "Helicobacter pylori Carbono 13"
    },
    {
        "especialidad": " Laboratorio Clínico",
        "examen": "Hemoglobina Glicosilada"
    },
    {
        "especialidad": " Laboratorio Clínico",
        "examen": "17 - Hidroxicorticoides"
    },
    {
        "especialidad": " Laboratorio Clínico",
        "examen": "Ácido 5 hidroxinidolacético (5 HIAA)"
    },
    {
        "especialidad": " Laboratorio Clínico",
        "examen": "17 - Hidroxi - Progesterona"
    },
    {
        "especialidad": " Laboratorio Clínico",
        "examen": "Beta 2-glicoproteina"
    },
    {
        "especialidad": " Laboratorio Clínico",
        "examen": "Insulina Ayunas"
    },
    {
        "especialidad": " Laboratorio Clínico",
        "examen": "Insulina, Curva de 5 Horas"
    },
    {
        "especialidad": " Laboratorio Clínico",
        "examen": "Hierro Sérico"
    },
    {
        "especialidad": " Laboratorio Clínico",
        "examen": "Capacidad de Fijación de Hierro (TIBC) Y Transferrina"
    },
    {
        "especialidad": " Laboratorio Clínico",
        "examen": "17-Ketoesteroides (orina 24 horas)",
        "etiquetas": "orina"
    },
    {
        "especialidad": " Laboratorio Clínico",
        "examen": "Lactato"
    },
    {
        "especialidad": " Laboratorio Clínico",
        "examen": "Deshidrogenasa Láctica (LDH)"
    },
    {
        "especialidad": " Laboratorio Clínico",
        "examen": "Plomo en sangre",
        "etiquetas": "sangre"
    },
    {
        "especialidad": " Laboratorio Clínico",
        "examen": "Lipasa"
    },
    {
        "especialidad": " Laboratorio Clínico",
        "examen": "Electroforesis de Lipoproteinas"
    },
    {
        "especialidad": " Laboratorio Clínico",
        "examen": "Colesterol HDL"
    },
    {
        "especialidad": " Laboratorio Clínico",
        "examen": "Colesterol LDL"
    },
    {
        "especialidad": " Laboratorio Clínico",
        "examen": "Magnesio"
    },
    {
        "especialidad": " Laboratorio Clínico",
        "examen": "Homocisteína"
    },
    {
        "especialidad": " Laboratorio Clínico",
        "examen": "Metanefrinas (orina 24 horas)",
        "etiquetas": "orina"
    },
    {
        "especialidad": " Laboratorio Clínico",
        "examen": "Mioglobina"
    },
    {
        "especialidad": " Laboratorio Clínico",
        "examen": "Inhibidor de C1 q Estearasa"
    },
    {
        "especialidad": " Laboratorio Clínico",
        "examen": "Opiaceos (orina)",
        "etiquetas": "orina"
    },
    {
        "especialidad": " Laboratorio Clínico",
        "examen": "Osmolaridad (suero u orina)",
        "etiquetas": "orina"
    },
    {
        "especialidad": " Laboratorio Clínico",
        "examen": "Western Blot (HIV)"
    },
    {
        "especialidad": " Laboratorio Clínico",
        "examen": "Hormona Paratiroidea / PTH"
    },
    {
        "especialidad": " Laboratorio Clínico",
        "examen": "Fosfatasa Ácida"
    },
    {
        "especialidad": " Laboratorio Clínico",
        "examen": "Fosfatasa Acida y Fosfatasa Prostática"
    },
    {
        "especialidad": " Laboratorio Clínico",
        "examen": "Fosfatasa Alcalina"
    },
    {
        "especialidad": " Laboratorio Clínico",
        "examen": "Fosfatasa alcalina, Isoenzimas"
    },
    {
        "especialidad": " Laboratorio Clínico",
        "examen": "Fósforo"
    },
    {
        "especialidad": " Laboratorio Clínico",
        "examen": "Fósforo, Orina de 24 Horas",
        "etiquetas": "orina"
    },
    {
        "especialidad": " Laboratorio Clínico",
        "examen": "Potasio Sérico"
    },
    {
        "especialidad": " Laboratorio Clínico",
        "examen": "Potasio en Orina de 24 horas",
        "etiquetas": "orina"
    },
    {
        "especialidad": " Laboratorio Clínico",
        "examen": "Progesterona"
    },
    {
        "especialidad": " Laboratorio Clínico",
        "examen": "Procalcitonina"
    },
    {
        "especialidad": " Laboratorio Clínico",
        "examen": "Prolactina"
    },
    {
        "especialidad": " Laboratorio Clínico",
        "examen": "Antígeno Prostático Específico / APE / PSA"
    },
    {
        "especialidad": " Laboratorio Clínico",
        "examen": "Antígeno Prostático Total y Libre"
    },
    {
        "especialidad": " Laboratorio Clínico",
        "examen": "Proteínas Totales en suero"
    },
    {
        "especialidad": " Laboratorio Clínico",
        "examen": "Electroforesis de Proteinas"
    },
    {
        "especialidad": " Laboratorio Clínico",
        "examen": "SHBG"
    },
    {
        "especialidad": " Laboratorio Clínico",
        "examen": "Sodio Sérico"
    },
    {
        "especialidad": " Laboratorio Clínico",
        "examen": "Sodio en Orina de 24 horas",
        "etiquetas": "orina"
    },
    {
        "especialidad": " Laboratorio Clínico",
        "examen": "Testosterona Libre"
    },
    {
        "especialidad": " Laboratorio Clínico",
        "examen": "Testosterona total"
    },
    {
        "especialidad": " Laboratorio Clínico",
        "examen": "Tiroglobulina"
    },
    {
        "especialidad": " Laboratorio Clínico",
        "examen": "T4"
    },
    {
        "especialidad": " Laboratorio Clínico",
        "examen": "T4 Libre (FT4)"
    },
    {
        "especialidad": " Laboratorio Clínico",
        "examen": "Hormona Estimulante de la Tiroides (TSH Ultrasensible)"
    },
    {
        "especialidad": " Laboratorio Clínico",
        "examen": "TGO / ASAT / SGOT"
    },
    {
        "especialidad": " Laboratorio Clínico",
        "examen": "TGP / ALAT / SGPT"
    },
    {
        "especialidad": " Laboratorio Clínico",
        "examen": "Triglicéridos"
    },
    {
        "especialidad": " Laboratorio Clínico",
        "examen": "T3"
    },
    {
        "especialidad": " Laboratorio Clínico",
        "examen": "Troponina I"
    },
    {
        "especialidad": " Laboratorio Clínico",
        "examen": "Nitrógeno de Urea (BUN)"
    },
    {
        "especialidad": " Laboratorio Clínico",
        "examen": "Nitrogeno de Urea, en Orina al Azar",
        "etiquetas": "orina"
    },
    {
        "especialidad": " Laboratorio Clínico",
        "examen": "Nitrógeno de Urea en Orina de 24 hrs.",
        "etiquetas": "orina"
    },
    {
        "especialidad": " Laboratorio Clínico",
        "examen": "Ácido Úrico",
        "etiquetas": "urico"
    },
    {
        "especialidad": " Laboratorio Clínico",
        "examen": "Acido Úrico, Orina de 24 Horas",
        "etiquetas": "urico"
    },
    {
        "especialidad": " Laboratorio Clínico",
        "examen": "Ácido Vanilmandelico (VMA) orina 24 horas",
        "etiquetas": "orina"
    },
    {
        "especialidad": " Laboratorio Clínico",
        "examen": "Absorción de D-Xylosa"
    },
    {
        "especialidad": " Laboratorio Clínico",
        "examen": "Péptido C"
    },
    {
        "especialidad": " Laboratorio Clínico",
        "examen": "Péptido C 2 hpp"
    },
    {
        "especialidad": " Laboratorio Clínico",
        "examen": "Gonadotropina Coriónica Humana (HCG)"
    },
    {
        "especialidad": " Laboratorio Clínico",
        "examen": "Prueba de Embarazo en Sangre",
        "etiquetas": "sangre"
    },
    {
        "especialidad": " Laboratorio Clínico",
        "examen": "Sangre Oculta (Heces)",
        "etiquetas": "sangre, heces"
    },
    {
        "especialidad": " Laboratorio Clínico",
        "examen": "Tiempo de Coagulación y Sangría",
        "etiquetas": "sangre"
    },
    {
        "especialidad": " Laboratorio Clínico",
        "examen": "Hematología Completa (Hemograma completo)",
        "etiquetas": "sangre"
    },
    {
        "especialidad": " Laboratorio Clínico",
        "examen": "Eosinófilos en Sangre, Recuento",
        "etiquetas": "sangre"
    },
    {
        "especialidad": " Laboratorio Clínico",
        "examen": "Hemoglobina - Hematocrito",
        "etiquetas": "sangre"
    },
    {
        "especialidad": " Laboratorio Clínico",
        "examen": "Glóbulos Rojos, Hemoglobina, Hematocrito",
        "etiquetas": "sangre"
    },
    {
        "especialidad": " Laboratorio Clínico",
        "examen": "Reticulocitos"
    },
    {
        "especialidad": " Laboratorio Clínico",
        "examen": "Glóbulos Blancos y Fórmula Diferencial"
    },
    {
        "especialidad": " Laboratorio Clínico",
        "examen": "Frote Periférico (Consulta Profesional)"
    },
    {
        "especialidad": " Laboratorio Clínico",
        "examen": "Factor V de Leyden"
    },
    {
        "especialidad": " Laboratorio Clínico",
        "examen": "Actividad de Factor VIII"
    },
    {
        "especialidad": " Laboratorio Clínico",
        "examen": "Von Willebrand (Ristocetin), Factor de"
    },
    {
        "especialidad": " Laboratorio Clínico",
        "examen": "Actividad de Factor IX"
    },
    {
        "especialidad": " Laboratorio Clínico",
        "examen": "Factor X"
    },
    {
        "especialidad": " Laboratorio Clínico",
        "examen": "Antitrombina III"
    },
    {
        "especialidad": " Laboratorio Clínico",
        "examen": "Proteína C (Coagulación)"
    },
    {
        "especialidad": " Laboratorio Clínico",
        "examen": "Proteína S (Coagulación)"
    },
    {
        "especialidad": " Laboratorio Clínico",
        "examen": "Dímero D"
    },
    {
        "especialidad": " Laboratorio Clínico",
        "examen": "Fibrinógeno"
    },
    {
        "especialidad": " Laboratorio Clínico",
        "examen": "Curva de Fragilidad Osmótica"
    },
    {
        "especialidad": " Laboratorio Clínico",
        "examen": "Plaquetas, Recuento en Sangre",
        "etiquetas": "sangre"
    },
    {
        "especialidad": " Laboratorio Clínico",
        "examen": "Tiempo de Protrombina / TP"
    },
    {
        "especialidad": " Laboratorio Clínico",
        "examen": "Anticoagulante Lúpico"
    },
    {
        "especialidad": " Laboratorio Clínico",
        "examen": "Velocidad de Eritrosedimentación / VSE"
    },
    {
        "especialidad": " Laboratorio Clínico",
        "examen": "Tiempo Parcial de Tromboplastina / TPT"
    },
    {
        "especialidad": " Laboratorio Clínico",
        "examen": "Células LE"
    },
    {
        "especialidad": " Laboratorio Clínico",
        "examen": "Weil Felix"
    },
    {
        "especialidad": " Laboratorio Clínico",
        "examen": "Antígenos Febriles / Widal"
    },
    {
        "especialidad": " Laboratorio Clínico",
        "examen": "Panel de Alergenos Alimenticios"
    },
    {
        "especialidad": " Laboratorio Clínico",
        "examen": "Panel de Alergenos por Inhalación"
    },
    {
        "especialidad": " Laboratorio Clínico",
        "examen": "Panel Alergenos 20 Alimentos"
    },
    {
        "especialidad": " Laboratorio Clínico",
        "examen": "Panel Alergenos 20 Inhalantes"
    },
    {
        "especialidad": " Laboratorio Clínico",
        "examen": "Panel Alergenos 20 Pediatricos"
    },
    {
        "especialidad": " Laboratorio Clínico",
        "examen": "Anticuerpos Anti Neutrófilos (P-C ANCA)"
    },
    {
        "especialidad": " Laboratorio Clínico",
        "examen": "Anticuerpos Antinucleares / FANA"
    },
    {
        "especialidad": " Laboratorio Clínico",
        "examen": "Antiestreptolisina \"O\" / ASO"
    },
    {
        "especialidad": " Laboratorio Clínico",
        "examen": "Proteína C Reactiva / PCR"
    },
    {
        "especialidad": " Laboratorio Clínico",
        "examen": "Anti - Cardiolipina o Anti - Fosfolípidos IgG e IgM",
        "etiquetas": "lipidos"
    },
    {
        "especialidad": " Laboratorio Clínico",
        "examen": "PANEL DE FRACCIONES LIPÍDICAS"
    },
    {
        "especialidad": " Laboratorio Clínico",
        "examen": "Aglutininas en Frío"
    },
    {
        "especialidad": " Laboratorio Clínico",
        "examen": "Complementos C3 y C4"
    },
    {
        "especialidad": " Laboratorio Clínico",
        "examen": "Anticuerpos Anti DNA"
    },
    {
        "especialidad": " Laboratorio Clínico",
        "examen": "Anticuerpos Anti Scleroderma (SCL 70)"
    },
    {
        "especialidad": " Laboratorio Clínico",
        "examen": "FTA-Abs"
    },
    {
        "especialidad": " Laboratorio Clínico",
        "examen": "Anticuerpos Anti Chagas"
    },
    {
        "especialidad": " Laboratorio Clínico",
        "examen": "FTA-Abs IgM"
    },
    {
        "especialidad": " Laboratorio Clínico",
        "examen": "Anti Músculo Liso, Anticuerpos / ASMA"
    },
    {
        "especialidad": " Laboratorio Clínico",
        "examen": "CA 72-4"
    },
    {
        "especialidad": " Laboratorio Clínico",
        "examen": "Chromogranin A"
    },
    {
        "especialidad": " Laboratorio Clínico",
        "examen": "CA 125"
    },
    {
        "especialidad": " Laboratorio Clínico",
        "examen": "Rubeola, Anticuerpos IgG"
    },
    {
        "especialidad": " Laboratorio Clínico",
        "examen": "Anticuerpos Anti Cysticercus cellulosae IgG"
    },
    {
        "especialidad": " Laboratorio Clínico",
        "examen": "Anticuerpos Anti Ribonucleoproteina (RNP)"
    },
    {
        "especialidad": " Laboratorio Clínico",
        "examen": "Antitiroideos, Anticuerpos"
    },
    {
        "especialidad": " Laboratorio Clínico",
        "examen": "Mononucleosis Infecciosa / Monotest / IM"
    },
    {
        "especialidad": " Laboratorio Clínico",
        "examen": "Látex Globulina / Factor Reumatoideo / FR"
    },
    {
        "especialidad": " Laboratorio Clínico",
        "examen": "Anticuerpos Anti Criptococcus neoformans"
    },
    {
        "especialidad": " Laboratorio Clínico",
        "examen": "Anticuerpos contra Aspergillus"
    },
    {
        "especialidad": " Laboratorio Clínico",
        "examen": "Hudlesson (Brucelosis)"
    },
    {
        "especialidad": " Laboratorio Clínico",
        "examen": "Anticuerpos Anti Toxocara IgG"
    },
    {
        "especialidad": " Laboratorio Clínico",
        "examen": "Anticuerpos Anti Chlamydia (bivalente)"
    },
    {
        "especialidad": " Laboratorio Clínico",
        "examen": "Anticuerpos Anti Coccidioides immitis (IgG e IgM)"
    },
    {
        "especialidad": " Laboratorio Clínico",
        "examen": "Citomegalovirus, Anticuerpos IgG"
    },
    {
        "especialidad": " Laboratorio Clínico",
        "examen": "Citomegalovirus, Anticuerpos IgM"
    },
    {
        "especialidad": " Laboratorio Clínico",
        "examen": "Epstein Barr, Anticuerpos IgM"
    },
    {
        "especialidad": " Laboratorio Clínico",
        "examen": "Helicobacter pylori, Anticuerpos IgG"
    },
    {
        "especialidad": " Laboratorio Clínico",
        "examen": "Herpes Simplex, Anticuerpos IgM"
    },
    {
        "especialidad": " Laboratorio Clínico",
        "examen": "Herpes Simplex Anticuerpos IgG"
    },
    {
        "especialidad": " Laboratorio Clínico",
        "examen": "Anticuerpos Anti Histoplasma (IgG e IgM)"
    },
    {
        "especialidad": " Laboratorio Clínico",
        "examen": "HIV, Anticuerpos"
    },
    {
        "especialidad": " Laboratorio Clínico",
        "examen": "Anti Core IgM, Anticuerpos / Anti - HBC IgM"
    },
    {
        "especialidad": " Laboratorio Clínico",
        "examen": "Anticuerpos Anti \"S\" Hepatitis B (HBsAb)"
    },
    {
        "especialidad": " Laboratorio Clínico",
        "examen": "Anticuerpos Anti Epsilon Hepatitis B"
    },
    {
        "especialidad": " Laboratorio Clínico",
        "examen": "Hepatitis A IgG Anticuerpos"
    },
    {
        "especialidad": " Laboratorio Clínico",
        "examen": "Hepatitis A IgM, Anticuerpos"
    },
    {
        "especialidad": " Laboratorio Clínico",
        "examen": "Influenza, Antígeno"
    },
    {
        "especialidad": " Laboratorio Clínico",
        "examen": "Anticuerpos Anti Leptospira IgG"
    },
    {
        "especialidad": " Laboratorio Clínico",
        "examen": "Anticuerpos anti Leptospira IgM"
    },
    {
        "especialidad": " Laboratorio Clínico",
        "examen": "Anticuerpos Anti Paperas IgM"
    },
    {
        "especialidad": " Laboratorio Clínico",
        "examen": "Anticuerpos Anti Mycoplasma IgG"
    },
    {
        "especialidad": " Laboratorio Clínico",
        "examen": "Anticuerpos Anti Mycoplasma IgM"
    },
    {
        "especialidad": " Laboratorio Clínico",
        "examen": "Serameba"
    },
    {
        "especialidad": " Laboratorio Clínico",
        "examen": "Virus Sincitial Respiratorio"
    },
    {
        "especialidad": " Laboratorio Clínico",
        "examen": "Rubeola, Anticuerpos IgM"
    },
    {
        "especialidad": " Laboratorio Clínico",
        "examen": "Bordetella Pertusis"
    },
    {
        "especialidad": " Laboratorio Clínico",
        "examen": "Anticuerpos Anti Sarampion IgG"
    },
    {
        "especialidad": " Laboratorio Clínico",
        "examen": "Toxoplasma, Anticuerpos IgG"
    },
    {
        "especialidad": " Laboratorio Clínico",
        "examen": "Toxoplasma, Anticuerpos IgM"
    },
    {
        "especialidad": " Laboratorio Clínico",
        "examen": "Cardiolipina / VDRL / RPR / Sífilis"
    },
    {
        "especialidad": " Laboratorio Clínico",
        "examen": "Anticuerpos Anti Varicela IgG"
    },
    {
        "especialidad": " Laboratorio Clínico",
        "examen": "Dengue, Anticuerpos IgG, IgM, Antigeno NS1"
    },
    {
        "especialidad": " Laboratorio Clínico",
        "examen": "Chikungunya IgM, Anticuerpos"
    },
    {
        "especialidad": " Laboratorio Clínico",
        "examen": "Treponema, Anticuerpos IgM"
    },
    {
        "especialidad": " Laboratorio Clínico",
        "examen": "Hepatitis C, Anticuerpos / HCV"
    },
    {
        "especialidad": " Laboratorio Clínico",
        "examen": "Prueba Cruzada (ABC) (Biología Molecular)"
    },
    {
        "especialidad": " Laboratorio Clínico",
        "examen": "PRUEBA DE PRA (BIOLOGIA MOLECULAR)"
    },
    {
        "especialidad": " Laboratorio Clínico",
        "examen": "Prueba de Filiación (DR/DQ) (Biología Molecular)"
    },
    {
        "especialidad": " Laboratorio Clínico",
        "examen": "Coombs Indirecto / IsoinmunizaciónO"
    },
    {
        "especialidad": " Laboratorio Clínico",
        "examen": "Coombs Directo"
    },
    {
        "especialidad": " Laboratorio Clínico",
        "examen": "Anticuerpos RH"
    },
    {
        "especialidad": " Laboratorio Clínico",
        "examen": "Grupo Sanguíneo",
        "etiquetas": "sangre"
    },
    {
        "especialidad": " Laboratorio Clínico",
        "examen": "Cultivo de Sangre / Hemocultivo",
        "etiquetas": "sangre"
    },
    {
        "especialidad": " Laboratorio Clínico",
        "examen": "Cultivo de Heces / Coprocultivo",
        "etiquetas": "heces"
    },
    {
        "especialidad": " Laboratorio Clínico",
        "examen": "Cultivo de Secreción Orofaríngea / Orocultivo"
    },
    {
        "especialidad": " Laboratorio Clínico",
        "examen": "Cultivo de Secreciones (cualquier área)"
    },
    {
        "especialidad": " Laboratorio Clínico",
        "examen": "Cultivo de Anarobios (cualquier área)"
    },
    {
        "especialidad": " Laboratorio Clínico",
        "examen": "Exudado Faríngeo (Rapitest/ Streptest)"
    },
    {
        "especialidad": " Laboratorio Clínico",
        "examen": "Urocultivo"
    },
    {
        "especialidad": " Laboratorio Clínico",
        "examen": "E. Coli O157H7 (antígeno en heces)",
        "etiquetas": "heces"
    },
    {
        "especialidad": " Laboratorio Clínico",
        "examen": "Norovirus"
    },
    {
        "especialidad": " Laboratorio Clínico",
        "examen": "Cultivo de Hongos (cualquier área)"
    },
    {
        "especialidad": " Laboratorio Clínico",
        "examen": "Salmonella (antígeno en heces)",
        "etiquetas": "heces"
    },
    {
        "especialidad": " Laboratorio Clínico",
        "examen": "Calprotectina + Lactoferrina en heces",
        "etiquetas": "heces"
    },
    {
        "especialidad": " Laboratorio Clínico",
        "examen": "Cultivo BK de orina",
        "etiquetas": "orina"
    },
    {
        "especialidad": " Laboratorio Clínico",
        "examen": "Heces Completo",
        "etiquetas": "heces"
    },
    {
        "especialidad": " Laboratorio Clínico",
        "examen": "Carga Viral para Hepatitis C"
    },
    {
        "especialidad": " Laboratorio Clínico",
        "examen": "Carga Viral para Hepatitis B"
    },
    {
        "especialidad": " Laboratorio Clínico",
        "examen": "Coloración Gram de Secreciones (cualquier área)"
    },
    {
        "especialidad": " Laboratorio Clínico",
        "examen": "Coloración Ziehl-Neelsen de Secreciones (cualquier área / BK"
    },
    {
        "especialidad": " Laboratorio Clínico",
        "examen": "Hematozoario / Gota Gruesa / Malaria",
        "etiquetas": "sangre"
    },
    {
        "especialidad": " Laboratorio Clínico",
        "examen": "Examen en Fresco de Secreciones (Uretral o Vaginal)",
        "etiquetas": "vagina"
    },
    {
        "especialidad": " Laboratorio Clínico",
        "examen": "Test de Graham (Oxiuros)"
    },
    {
        "especialidad": " Laboratorio Clínico",
        "examen": "Investigación de Hongos (cualquier área) / KOH"
    },
    {
        "especialidad": " Laboratorio Clínico",
        "examen": "Adenovirus, Antígeno en Heces",
        "etiquetas": "heces"
    },
    {
        "especialidad": " Laboratorio Clínico",
        "examen": "Adenovirus Respiratorio"
    },
    {
        "especialidad": " Laboratorio Clínico",
        "examen": "Investigación de Ciclospora (Heces)",
        "etiquetas": "heces"
    },
    {
        "especialidad": " Laboratorio Clínico",
        "examen": "Antígeno de Chlamydia (cualquier área)"
    },
    {
        "especialidad": " Laboratorio Clínico",
        "examen": "Investigacion de Clostridium difficile"
    },
    {
        "especialidad": " Laboratorio Clínico",
        "examen": "Giardia, Antígeno en heces",
        "etiquetas": "heces"
    },
    {
        "especialidad": " Laboratorio Clínico",
        "examen": "Hepatitis B, Antígeno de Superficie / HBsAG / Antígeno Australiano"
    },
    {
        "especialidad": " Laboratorio Clínico",
        "examen": "Antígeno Epsilon, Hepatitis B (HBeAg)"
    },
    {
        "especialidad": " Laboratorio Clínico",
        "examen": "Antígeno p24 de HIV"
    },
    {
        "especialidad": " Laboratorio Clínico",
        "examen": "Rotavirus, Antígeno en Heces",
        "etiquetas": "heces"
    },
    {
        "especialidad": " Laboratorio Clínico",
        "examen": "Astrovirus (heces)",
        "etiquetas": "heces"
    },
    {
        "especialidad": " Laboratorio Clínico",
        "examen": "Helicobacter pylori, Antígeno en heces",
        "etiquetas": "heces"
    },
    {
        "especialidad": " Laboratorio Clínico",
        "examen": "Hepatitis B, carga viral"
    },
    {
        "especialidad": " Laboratorio Clínico",
        "examen": "Carga Viral para HIV (PCR)"
    },
    {
        "especialidad": " Laboratorio Clínico",
        "examen": "Cultivo BK de Secreciones (cualquier área)"
    },
    {
        "especialidad": " Laboratorio Clínico",
        "examen": "HPV"
    },
    {
        "especialidad": " Laboratorio Clínico",
        "examen": "Líquido Sinovial"
    },
    {
        "especialidad": " Laboratorio Clínico",
        "examen": "Subpoblación de Linfocitos CD4"
    },
    {
        "especialidad": " Laboratorio Clínico",
        "examen": "Subpoblación de Linfocitos CD3"
    },
    {
        "especialidad": " Laboratorio Clínico",
        "examen": "Gliadina y Antitransglutaminasa (Antiendomiciales), Anticuerpos"
    },
    {
        "especialidad": " Laboratorio Clínico",
        "examen": "ANTICUERPOS ENDOMISIALES (IF)"
    },
    {
        "especialidad": " Laboratorio Clínico",
        "examen": "Espermograma"
    },
    {
        "especialidad": " Laboratorio Clínico",
        "examen": "Anticuerpos Anti Esperma"
    },
    {
        "especialidad": " Laboratorio Clínico",
        "examen": "Certificación de NO CONTAMINANTE"
    },
    {
        "especialidad": " Laboratorio Clínico",
        "examen": "Material para aspirado"
    },
    {
        "especialidad": " Laboratorio Clínico",
        "examen": "Galón para recolecta de Orina de 24 horas",
        "etiquetas": "orina"
    },
    {
        "especialidad": " Laboratorio Clínico",
        "examen": "M. tuberculosis, Anticuerpos (IgG, IgM)"
    },
    {
        "especialidad": " Laboratorio Clínico",
        "examen": "Amilasa Pancreática"
    },
    {
        "especialidad": " Laboratorio Clínico",
        "examen": "Arsénico"
    },
    {
        "especialidad": " Laboratorio Clínico",
        "examen": "Calcio, orina simple",
        "etiquetas": "orina"
    },
    {
        "especialidad": " Laboratorio Clínico",
        "examen": "Cloruros en orina casual",
        "etiquetas": "orina"
    },
    {
        "especialidad": " Laboratorio Clínico",
        "examen": "Creatinina, orina al azar",
        "etiquetas": "orina"
    },
    {
        "especialidad": " Laboratorio Clínico",
        "examen": "Normetanefrinas"
    },
    {
        "especialidad": " Laboratorio Clínico",
        "examen": "Canabinoides (orina)",
        "etiquetas": "orina"
    },
    {
        "especialidad": " Laboratorio Clínico",
        "examen": "Reabsorción Tubular del Fósforo"
    },
    {
        "especialidad": " Laboratorio Clínico",
        "examen": "Proteínas en orina de 24 horas",
        "etiquetas": "orina"
    },
    {
        "especialidad": " Laboratorio Clínico",
        "examen": "Acido úrico, orina al azar",
        "etiquetas": "urico"
    },
    {
        "especialidad": " Laboratorio Clínico",
        "examen": "Eosinofilos, Recuento en Moco Nasal"
    },
    {
        "especialidad": " Laboratorio Clínico",
        "examen": "Panel Autoinmune (Screening)"
    },
    {
        "especialidad": " Laboratorio Clínico",
        "examen": "Panel Gastrico Autoinmune"
    },
    {
        "especialidad": " Laboratorio Clínico",
        "examen": "Anticuerpos anti Smith (Anti SM)"
    },
    {
        "especialidad": " Laboratorio Clínico",
        "examen": "Anticuerpos Anti Borrelia burgdorferi"
    },
    {
        "especialidad": " Laboratorio Clínico",
        "examen": "Antígeno de Cisticercus celulosae"
    },
    {
        "especialidad": " Laboratorio Clínico",
        "examen": "Anticuerpos Anti Chlamydia Trachomatis IgG"
    },
    {
        "especialidad": " Laboratorio Clínico",
        "examen": "Anticuerpos Anti Chlamydia Trachomatis IgM"
    },
    {
        "especialidad": " Laboratorio Clínico",
        "examen": "Chlamydia pneumoniae, Anticuerpos IgG"
    },
    {
        "especialidad": " Laboratorio Clínico",
        "examen": "Chlamydia pneumoniae, Anticuerpos IgM"
    },
    {
        "especialidad": " Laboratorio Clínico",
        "examen": "Helicobacter Pylori IgA, Anticuerpos"
    },
    {
        "especialidad": " Laboratorio Clínico",
        "examen": "Paperas, Anticuerpos IgG"
    },
    {
        "especialidad": " Laboratorio Clínico",
        "examen": "Anti Mitocondriales, Anticuerpos"
    },
    {
        "especialidad": " Laboratorio Clínico",
        "examen": "Anticuerpos Anti Sarampion IgM"
    },
    {
        "especialidad": " Laboratorio Clínico",
        "examen": "Anticuerpos Anti Varicela IgM"
    },
    {
        "especialidad": " Laboratorio Clínico",
        "examen": "HLA B-27 (BIOLOGIA MOLECULAR)"
    },
    {
        "especialidad": " Laboratorio Clínico",
        "examen": "Líquido Peritoneal"
    },
    {
        "especialidad": " Laboratorio Clínico",
        "examen": "Coloración Giemsa de Secreciones (cualquier área)"
    },
    {
        "especialidad": " Laboratorio Clínico",
        "examen": "Proteina Orina al Azar",
        "etiquetas": "orina"
    },
    {
        "especialidad": " Mamografía",
        "examen": "Mamografía mama derecha"
    },
    {
        "especialidad": " Mamografía",
        "examen": "Galatografía mama derecha"
    },
    {
        "especialidad": " Mamografía",
        "examen": "Magnificación de mama izquierda"
    },
    {
        "especialidad": " Mamografía",
        "examen": "Mamografía mama izquierda"
    },
    {
        "especialidad": " Mamografía",
        "examen": "Galatografía mama izquierda"
    },
    {
        "especialidad": " Mamografía",
        "examen": "Magnificación de mama derecha"
    },
    {
        "especialidad": " Mamografía",
        "examen": "Mamografía bilateral (2 mamas)"
    },
    {
        "especialidad": " Neurofisiología",
        "examen": "Electroencefalograma"
    },
    {
        "especialidad": " Neurofisiología",
        "examen": "Monitoreo Electroencefalografico TIPO A"
    },
    {
        "especialidad": " Neurofisiología",
        "examen": "Monitoreo Electroencefalografico TIPO B"
    },
    {
        "especialidad": " Neurofisiología",
        "examen": "Monitoreo Electroencefalografico TIPO C"
    },
    {
        "especialidad": " Neurofisiología",
        "examen": "EEG MONITORIZACION CON DEPRESIÓN PARCIAL DEL SUEÑO DE 1 HORA"
    },
    {
        "especialidad": " Rayos X",
        "examen": "Rayos X de Mandibula 3 proyecciones",
        "etiquetas": "mandibula"
    },
    {
        "especialidad": " Rayos X",
        "examen": "Rayos X de Maxilar superior o inferior"
    },
    {
        "especialidad": " Rayos X",
        "examen": "Rayos X de Arcos cigomáticos"
    },
    {
        "especialidad": " Rayos X",
        "examen": "Rayos X de Orbitas 4 proyecciones"
    },
    {
        "especialidad": " Rayos X",
        "examen": "Rayos X de Huesos propios de la nariz"
    },
    {
        "especialidad": " Rayos X",
        "examen": "Rayos X de Waters"
    },
    {
        "especialidad": " Rayos X",
        "examen": "Rayos X de Silla turca"
    },
    {
        "especialidad": " Rayos X",
        "examen": "Rayos X de Craneo 3 proyecciones"
    },
    {
        "especialidad": " Rayos X",
        "examen": "Rayos X de Craneo AP y lateral"
    },
    {
        "especialidad": " Rayos X",
        "examen": "Rayos X de Base de craneo"
    },
    {
        "especialidad": " Rayos X",
        "examen": "Rayos X de Cuello AP, Lateral y oblícuas"
    },
    {
        "especialidad": " Rayos X",
        "examen": "Rayos X de Lateral de cuello"
    },
    {
        "especialidad": " Rayos X",
        "examen": "Rayos X de Nasofaringe lateral adenoides"
    },
    {
        "especialidad": " Rayos X",
        "examen": "Rayos X de Sialograma sublingual"
    },
    {
        "especialidad": " Rayos X",
        "examen": "Rayos X de Sialograma parótida derecha"
    },
    {
        "especialidad": " Rayos X",
        "examen": "Rayos X de Sialograma parótida izquierda"
    },
    {
        "especialidad": " Rayos X",
        "examen": "Rayos X de Torax AP"
    },
    {
        "especialidad": " Rayos X",
        "examen": "Rayos X de Torax PA y Lateral"
    },
    {
        "especialidad": " Rayos X",
        "examen": "Rayos X de Torax AP y lateral"
    },
    {
        "especialidad": " Rayos X",
        "examen": "Rayos X de Torax PA/Oblicuas con bario"
    },
    {
        "especialidad": " Rayos X",
        "examen": "Rayos X de Parilla costal derecha"
    },
    {
        "especialidad": " Rayos X",
        "examen": "Rayos X de Parilla costal izquierda"
    },
    {
        "especialidad": " Rayos X",
        "examen": "Rayos X de Columna cervico-dorso-lumbar AP"
    },
    {
        "especialidad": " Rayos X",
        "examen": "Rayos X de Columna cervico-dorso-lumbar AP y lateral"
    },
    {
        "especialidad": " Rayos X",
        "examen": "Rayos X de Columna cervical AP y lateral"
    },
    {
        "especialidad": " Rayos X",
        "examen": "Rayos X de Columna cervical completa"
    },
    {
        "especialidad": " Rayos X",
        "examen": "Rayos X de Columna cervical lateral"
    },
    {
        "especialidad": " Rayos X",
        "examen": "Rayos X de Columna lumbar AP"
    },
    {
        "especialidad": " Rayos X",
        "examen": "Rayos X de Columna dorsal AP"
    },
    {
        "especialidad": " Rayos X",
        "examen": "Rayos X de Columna dorsal lateral"
    },
    {
        "especialidad": " Rayos X",
        "examen": "Rayos X de Columna lumbar lateral"
    },
    {
        "especialidad": " Rayos X",
        "examen": "Rayos X de Columna cervical oblicua"
    },
    {
        "especialidad": " Rayos X",
        "examen": "Rayos X de Columna cervical AP, lateral y oblicuas"
    },
    {
        "especialidad": " Rayos X",
        "examen": "Rayos X de Seria ósea metastásica"
    },
    {
        "especialidad": " Rayos X",
        "examen": "Rayos X de Columna dorsal oblicua"
    },
    {
        "especialidad": " Rayos X",
        "examen": "Rayos X de Columna dorsal AP, lateral y oblicuas"
    },
    {
        "especialidad": " Rayos X",
        "examen": "Rayos X de Columna dorsal AP y lateral"
    },
    {
        "especialidad": " Rayos X",
        "examen": "Rayos X de Columna dorsal completa"
    },
    {
        "especialidad": " Rayos X",
        "examen": "Rayos X de Serie escoliotica cualquier columna"
    },
    {
        "especialidad": " Rayos X",
        "examen": "Rayos X de Columna dorso-lumbar lateral"
    },
    {
        "especialidad": " Rayos X",
        "examen": "Rayos X de Columna lumbar AP y Lateral"
    },
    {
        "especialidad": " Rayos X",
        "examen": "Rayos X de Columna lumbar AP, lateral y oblicuas"
    },
    {
        "especialidad": " Rayos X",
        "examen": "Rayos X de Columna lumbar oblicua"
    },
    {
        "especialidad": " Rayos X",
        "examen": "Rayos X de Columna lumbar completa"
    },
    {
        "especialidad": " Rayos X",
        "examen": "Rayos X de Columna Completa (Cervical, Dorsal y Lumbar) Lateral"
    },
    {
        "especialidad": " Rayos X",
        "examen": "Rayos X Lateral de Columna Visita Screening"
    },
    {
        "especialidad": " Rayos X",
        "examen": "Rayos X de Caderas o pelvis AP",
        "etiquetas": "pelvis"
    },
    {
        "especialidad": " Rayos X",
        "examen": "Rayos X de Pelvis AP y oblicua",
        "etiquetas": "pelvis"
    },
    {
        "especialidad": " Rayos X",
        "examen": "Rayos X de Región coxígea"
    },
    {
        "especialidad": " Rayos X",
        "examen": "Rayos X de Clavícula derecha"
    },
    {
        "especialidad": " Rayos X",
        "examen": "Rayos X de Clavícula izquierdda"
    },
    {
        "especialidad": " Rayos X",
        "examen": "Rayos X de Escapula derecha"
    },
    {
        "especialidad": " Rayos X",
        "examen": "Rayos X de Hombro izquierdo rotación"
    },
    {
        "especialidad": " Rayos X",
        "examen": "Rayos X de Escapula izquierda"
    },
    {
        "especialidad": " Rayos X",
        "examen": "Rayos X de Hombro derecho 4 proyecciones"
    },
    {
        "especialidad": " Rayos X",
        "examen": "Rayos X de Hombro izquierdo 4 proyecciones"
    },
    {
        "especialidad": " Rayos X",
        "examen": "Rayos X de Hombro derecho 3 proyecciones"
    },
    {
        "especialidad": " Rayos X",
        "examen": "Rayos X de Hombro izquierdo 3 proyecciones"
    },
    {
        "especialidad": " Rayos X",
        "examen": "Rayos X de Hombro derecho 2 proyecciones"
    },
    {
        "especialidad": " Rayos X",
        "examen": "Rayos X de Hombro izquierdo 2 proyecciones"
    },
    {
        "especialidad": " Rayos X",
        "examen": "Rayos X de Hombro derecho rotación"
    },
    {
        "especialidad": " Rayos X",
        "examen": "Rayos X de Brazo derecho AP y lateral"
    },
    {
        "especialidad": " Rayos X",
        "examen": "Rayos X de Brazo izquierdo AP y lateral"
    },
    {
        "especialidad": " Rayos X",
        "examen": "Rayos X de Antebrazo derecho AP y lateral"
    },
    {
        "especialidad": " Rayos X",
        "examen": "Rayos X de Antebrazo izquierdo AP y lateral"
    },
    {
        "especialidad": " Rayos X",
        "examen": "Rayos X de Muñeca derecha AP/Lateral"
    },
    {
        "especialidad": " Rayos X",
        "examen": "Rayos X de Muñeca izquierda AP/Lateral"
    },
    {
        "especialidad": " Rayos X",
        "examen": "Rayos X de Mano derecha"
    },
    {
        "especialidad": " Rayos X",
        "examen": "Rayos X de Mano izquierda"
    },
    {
        "especialidad": " Rayos X",
        "examen": "Rayos X de Dedos mano derecha"
    },
    {
        "especialidad": " Rayos X",
        "examen": "Rayos X de Dedos mano izquierda"
    },
    {
        "especialidad": " Rayos X",
        "examen": "Rayos X de Dedos pie derecho"
    },
    {
        "especialidad": " Rayos X",
        "examen": "Rayos X de Dedos pie izquierdo"
    },
    {
        "especialidad": " Rayos X",
        "examen": "Rayos X de Cadera derecha AP y oblicua"
    },
    {
        "especialidad": " Rayos X",
        "examen": "Rayos X de Cadera izquierda AP y oblicua"
    },
    {
        "especialidad": " Rayos X",
        "examen": "Rayos X de Ambas caderas AP y oblicuas"
    },
    {
        "especialidad": " Rayos X",
        "examen": "Rayos X de Caderas o pelvis AP y posición de rana",
        "etiquetas": "pelvis"
    },
    {
        "especialidad": " Rayos X",
        "examen": "Rayos X de Tibia derecha AP/Lateral"
    },
    {
        "especialidad": " Rayos X",
        "examen": "Rayos X de Tibia izquierda AP/Lateral"
    },
    {
        "especialidad": " Rayos X",
        "examen": "Rayos X de Tobillo derecho Ap, Lateral"
    },
    {
        "especialidad": " Rayos X",
        "examen": "Rayos X de Tobillo izquierdo Ap, Lateral"
    },
    {
        "especialidad": " Rayos X",
        "examen": "Rayos X de Tobillo derecho Ap, Lateral y oblicuas"
    },
    {
        "especialidad": " Rayos X",
        "examen": "Rayos X de Tobillo izquierdo Ap, Lateral y oblicuas"
    },
    {
        "especialidad": " Rayos X",
        "examen": "Rayos X de Pie derecho AP y Oblicua"
    },
    {
        "especialidad": " Rayos X",
        "examen": "Rayos X de Pie izquierdo AP y Oblicua"
    },
    {
        "especialidad": " Rayos X",
        "examen": "Rayos X de Abdomen AP y lateral"
    },
    {
        "especialidad": " Rayos X",
        "examen": "Rayos X de Abdomen AP o KUB"
    },
    {
        "especialidad": " Rayos X",
        "examen": "Rayos X de Abdomen dos proyecciones"
    },
    {
        "especialidad": " Rayos X",
        "examen": "Rayos X de Abdomen de pie"
    },
    {
        "especialidad": " Rayos X",
        "examen": "Rayos X de Esofagograma"
    },
    {
        "especialidad": " Rayos X",
        "examen": "Rayos X de Serie gastro-duodenal"
    },
    {
        "especialidad": " Rayos X",
        "examen": "Rayos X de Serie gastro-intestinal completa",
        "etiquetas": "testiculo"
    },
    {
        "especialidad": " Rayos X",
        "examen": "Rayos X de Enema de bario simple"
    },
    {
        "especialidad": " Rayos X",
        "examen": "Rayos X de Enema de bario con doble medio de contraste"
    },
    {
        "especialidad": " Rayos X",
        "examen": "Rayos X de Colangiograma post-operatorio"
    },
    {
        "especialidad": " Rayos X",
        "examen": "Rayos X de Pielograma hipertensivo o minutado"
    },
    {
        "especialidad": " Rayos X",
        "examen": "Rayos X de Cisto-uretrograma miccional"
    },
    {
        "especialidad": " Rayos X",
        "examen": "Rayos X de Cistograma"
    },
    {
        "especialidad": " Rayos X",
        "examen": "Rayos X de Pielograma excretorio con medio IV"
    },
    {
        "especialidad": " Rayos X",
        "examen": "Rayos X de Uretrograma retrogrado"
    },
    {
        "especialidad": " Rayos X",
        "examen": "Rayos X de Pelvimetria",
        "etiquetas": "pelvis"
    },
    {
        "especialidad": " Rayos X",
        "examen": "Rayos X de Histerosalpingograma"
    },
    {
        "especialidad": " Rayos X",
        "examen": "Rayos X de Venograma miembros superiores"
    },
    {
        "especialidad": " Rayos X",
        "examen": "Rayos X de Venograma miembros inferiores"
    },
    {
        "especialidad": " Rayos X",
        "examen": "Rayos X de Fluoroscopia procedimiento por especialista por minuto"
    },
    {
        "especialidad": " Rayos X",
        "examen": "Rayos X de Fluoroscopia para niños"
    },
    {
        "especialidad": " Rayos X",
        "examen": "Rayos X de Placa adicional"
    },
    {
        "especialidad": " Rayos X",
        "examen": "Rayos X de 2 Proyecciones Adicionales"
    },
    {
        "especialidad": " Rayos X",
        "examen": "Rayos X de 3 Proyecciones Adicionales"
    },
    {
        "especialidad": " Rayos X",
        "examen": "Rayos X de 4 Proyecciones Adicionales"
    },
    {
        "especialidad": " Rayos X",
        "examen": "Rayos X de Edad ósea"
    },
    {
        "especialidad": " Rayos X",
        "examen": "Rayos X de Fistulograma"
    },
    {
        "especialidad": " Rayos X",
        "examen": "Rayos X de Huesos largos"
    },
    {
        "especialidad": " Rayos X",
        "examen": "Rayos X de Nefrostografía"
    },
    {
        "especialidad": " Rayos X",
        "examen": "Rayos X de Oidos"
    },
    {
        "especialidad": " Rayos X",
        "examen": "Rayos X de Injerto óseo"
    },
    {
        "especialidad": " Rayos X",
        "examen": "Rayos X de Extremidad AP y lateral 1 región"
    },
    {
        "especialidad": " Rayos X",
        "examen": "Rayos X de Columna lumbar AP y Lateral con Spot"
    },
    {
        "especialidad": " Rayos X",
        "examen": "Rayos X de Mastoides"
    },
    {
        "especialidad": " Rayos X",
        "examen": "Rayos X de Extremidad AP y Lateral 2 Regiones"
    },
    {
        "especialidad": " Resonancia Magnética",
        "examen": "Resonancia Magnética de Pancreas con Complemento por TAC"
    },
    {
        "especialidad": " Resonancia Magnética",
        "examen": "Resonancia Magnética de Orbitas con medio de contraste"
    },
    {
        "especialidad": " Resonancia Magnética",
        "examen": "Resonancia Magnética de Macizo facial"
    },
    {
        "especialidad": " Resonancia Magnética",
        "examen": "Resonancia Magnética de Mandibula",
        "etiquetas": "mandibula"
    },
    {
        "especialidad": " Resonancia Magnética",
        "examen": "Resonancia Magnética de Senos paranasales"
    },
    {
        "especialidad": " Resonancia Magnética",
        "examen": "Resonancia Magnética de Base de lengua"
    },
    {
        "especialidad": " Resonancia Magnética",
        "examen": "Resonancia Magnética de Parotidas"
    },
    {
        "especialidad": " Resonancia Magnética",
        "examen": "Resonancia Magnética de Cerebral"
    },
    {
        "especialidad": " Resonancia Magnética",
        "examen": "Resonancia Magnética de Hipófisis o Silla turca"
    },
    {
        "especialidad": " Resonancia Magnética",
        "examen": "Resonancia Magnética de Tallo cerebral"
    },
    {
        "especialidad": " Resonancia Magnética",
        "examen": "Resonancia Magnética de Oidos"
    },
    {
        "especialidad": " Resonancia Magnética",
        "examen": "Resonancia Magnetica Tractografia Cerebral"
    },
    {
        "especialidad": " Resonancia Magnética",
        "examen": "Resonancia Magnética de Mamografía por RM con medio de contraste"
    },
    {
        "especialidad": " Resonancia Magnética",
        "examen": "Resonancia Magnética de Torax"
    },
    {
        "especialidad": " Resonancia Magnética",
        "examen": "Resonancia Magnetica Complemento por Reconstruccion en 3D (Tercera Dimension)"
    },
    {
        "especialidad": " Resonancia Magnética",
        "examen": "Resonancia Magnética de Columna Dorsal"
    },
    {
        "especialidad": " Resonancia Magnética",
        "examen": "Resonancia Magnética de Mielograma sin medio de contraste"
    },
    {
        "especialidad": " Resonancia Magnética",
        "examen": "Resonancia Magnética de Columna Cervical"
    },
    {
        "especialidad": " Resonancia Magnética",
        "examen": "Resonancia Magnética de Plexo braquial"
    },
    {
        "especialidad": " Resonancia Magnética",
        "examen": "Resonancia Magnética de Cuello"
    },
    {
        "especialidad": " Resonancia Magnética",
        "examen": "Resonancia Magnética de Faringe"
    },
    {
        "especialidad": " Resonancia Magnética",
        "examen": "Resonancia Magnética de Laringe"
    },
    {
        "especialidad": " Resonancia Magnética",
        "examen": "Resonancia Magnética de Canal espinal o médula"
    },
    {
        "especialidad": " Resonancia Magnética",
        "examen": "Resonancia Magnética de Columna Lumbar"
    },
    {
        "especialidad": " Resonancia Magnética",
        "examen": "Resonancia Magnética Higado Tres Fases"
    },
    {
        "especialidad": " Resonancia Magnética",
        "examen": "Resonancia Magnética de Abdomen inferior"
    },
    {
        "especialidad": " Resonancia Magnética",
        "examen": "Resonancia Magnética de Sacro - Ilíaca"
    },
    {
        "especialidad": " Resonancia Magnética",
        "examen": "Resonancia Magnética de Coccix"
    },
    {
        "especialidad": " Resonancia Magnética",
        "examen": "Resonancia Magnetica SacroCoxigea"
    },
    {
        "especialidad": " Resonancia Magnética",
        "examen": "Resonancia Magnética de Muñeca izquierda"
    },
    {
        "especialidad": " Resonancia Magnética",
        "examen": "Resonancia Magnética de Brazo Derecho"
    },
    {
        "especialidad": " Resonancia Magnética",
        "examen": "Resonancia Magnética de Dedos de la mano derecha"
    },
    {
        "especialidad": " Resonancia Magnética",
        "examen": "Resonancia Magnética de Codo derecho"
    },
    {
        "especialidad": " Resonancia Magnética",
        "examen": "Resonancia Magnética de Clavícula derecha"
    },
    {
        "especialidad": " Resonancia Magnética",
        "examen": "Resonancia Magnética de Clavícula izquierda"
    },
    {
        "especialidad": " Resonancia Magnética",
        "examen": "Resonancia Magnética de Omoplato derecho"
    },
    {
        "especialidad": " Resonancia Magnética",
        "examen": "Resonancia Magnética de Omoplato izquierdo"
    },
    {
        "especialidad": " Resonancia Magnética",
        "examen": "Resonancia Magnética de Antebrazo derecho"
    },
    {
        "especialidad": " Resonancia Magnética",
        "examen": "Resonancia Magnética de Muñeca derecha"
    },
    {
        "especialidad": " Resonancia Magnética",
        "examen": "Resonancia Magnética de Mano derecha"
    },
    {
        "especialidad": " Resonancia Magnética",
        "examen": "Resonancia Magnética de Brazo Izquierdo"
    },
    {
        "especialidad": " Resonancia Magnética",
        "examen": "Resonancia Magnética de Codo izquierdo"
    },
    {
        "especialidad": " Resonancia Magnética",
        "examen": "Resonancia Magnética de Antebrazo izquierdo"
    },
    {
        "especialidad": " Resonancia Magnética",
        "examen": "Resonancia Magnética de Mano izquierda"
    },
    {
        "especialidad": " Resonancia Magnética",
        "examen": "Resonancia Magnética de Dedos mano izquierda"
    },
    {
        "especialidad": " Resonancia Magnética",
        "examen": "Resonancia Magnética de Hombro derecho"
    },
    {
        "especialidad": " Resonancia Magnética",
        "examen": "Resonancia Magnética de Hombro izquierdo"
    },
    {
        "especialidad": " Resonancia Magnética",
        "examen": "Resonancia Magnética de Muslo derecho"
    },
    {
        "especialidad": " Resonancia Magnética",
        "examen": "Resonancia Magnética de Rodilla derecha"
    },
    {
        "especialidad": " Resonancia Magnética",
        "examen": "Resonancia Magnética de Tendon de Aquíles derecho"
    },
    {
        "especialidad": " Resonancia Magnética",
        "examen": "Resonancia Magnética de Tendon de Aquíles izquierdo"
    },
    {
        "especialidad": " Resonancia Magnética",
        "examen": "Resonancia Magnética de Pierna derecha"
    },
    {
        "especialidad": " Resonancia Magnética",
        "examen": "Resonancia Magnética de Tobillo derecho"
    },
    {
        "especialidad": " Resonancia Magnética",
        "examen": "Resonancia Magnética de Pie derecho"
    },
    {
        "especialidad": " Resonancia Magnética",
        "examen": "Resonancia Magnética de Muslo izquierdo"
    },
    {
        "especialidad": " Resonancia Magnética",
        "examen": "Resonancia Magnética de Rodilla izquierda"
    },
    {
        "especialidad": " Resonancia Magnética",
        "examen": "Resonancia Magnética de Pierna izquierda"
    },
    {
        "especialidad": " Resonancia Magnética",
        "examen": "Resonancia Magnética de Tobillo izquierdo"
    },
    {
        "especialidad": " Resonancia Magnética",
        "examen": "Resonancia Magnética de Pie izquierdo"
    },
    {
        "especialidad": " Resonancia Magnética",
        "examen": "Resonancia Magnética de Cadera derecha"
    },
    {
        "especialidad": " Resonancia Magnética",
        "examen": "Resonancia Magnética de Cadera izquierda"
    },
    {
        "especialidad": " Resonancia Magnética",
        "examen": "Resonancia Magnética de Pelvica",
        "etiquetas": "pelvis"
    },
    {
        "especialidad": " Resonancia Magnética",
        "examen": "Resonancia Magnética de Abdomen Superior"
    },
    {
        "especialidad": " Resonancia Magnética",
        "examen": "Resonancia Magnética de Obstétrica"
    },
    {
        "especialidad": " Resonancia Magnética",
        "examen": "Resonancia Magnética de Renal",
        "etiquetas": "riñon"
    },
    {
        "especialidad": " Resonancia Magnética",
        "examen": "Resonancia Magnética de Colangiocolecistograma"
    },
    {
        "especialidad": " Resonancia Magnética",
        "examen": "Resonancia Magnética de Colangiograma"
    },
    {
        "especialidad": " Resonancia Magnética",
        "examen": "Resonancia Magnética de Espectroscopia cerebral"
    },
    {
        "especialidad": " Resonancia Magnética",
        "examen": "Resonancia Magnética de Juego de placas extras"
    },
    {
        "especialidad": " Resonancia Magnética",
        "examen": "Resonancia Magnética de Pielograma"
    },
    {
        "especialidad": " Resonancia Magnética",
        "examen": "Resonancia Magnética de Emergencia de Resonancia Magnética"
    },
    {
        "especialidad": " Resonancia Magnética",
        "examen": "Resonancia Magnética de Evaluación en el tratamiento de fibromas uterinos sintomáticos"
    },
    {
        "especialidad": " Resonancia Magnética",
        "examen": "Resonancia Magnética de Hidrodinamia del LCR (Líquido cefalo-raquídeo)"
    },
    {
        "especialidad": " Sedación",
        "examen": "Sedacion para Procedimiento Radiologico 3"
    },
    {
        "especialidad": " Sedación",
        "examen": "Sedacion para Procedimiento Radiologico 1"
    },
    {
        "especialidad": " Sedación",
        "examen": "Sedacion para Procedimiento Radiologico 2"
    },
    {
        "especialidad": " Sedación",
        "examen": "Sedacion para Procedimiento Radiologico 4"
    },
    {
        "especialidad": " Tomografía Computada",
        "examen": "Tomografía Computada Base del craneo"
    },
    {
        "especialidad": " Tomografía Computada",
        "examen": "Tomografía Computada Cerebral"
    },
    {
        "especialidad": " Tomografía Computada",
        "examen": "Tomografía Computada Oídos"
    },
    {
        "especialidad": " Tomografía Computada",
        "examen": "Tomografía Computada Macizo facial"
    },
    {
        "especialidad": " Tomografía Computada",
        "examen": "Tomografía Computada Arcos cigomáticos"
    },
    {
        "especialidad": " Tomografía Computada",
        "examen": "Tomografía Computada Orbitas"
    },
    {
        "especialidad": " Tomografía Computada",
        "examen": "Tomografía Computada Mastoides"
    },
    {
        "especialidad": " Tomografía Computada",
        "examen": "Tomografía Computada Senos paranasales"
    },
    {
        "especialidad": " Tomografía Computada",
        "examen": "Tomografía Computada Maxilofacial"
    },
    {
        "especialidad": " Tomografía Computada",
        "examen": "Tomografia Computada de Nariz"
    },
    {
        "especialidad": " Tomografía Computada",
        "examen": "Tomografía Computada Cuello"
    },
    {
        "especialidad": " Tomografía Computada",
        "examen": "Tomografía Computada Nasofaringe"
    },
    {
        "especialidad": " Tomografía Computada",
        "examen": "Tomografía Computada Esofago"
    },
    {
        "especialidad": " Tomografía Computada",
        "examen": "Tomografía Computada Laringe"
    },
    {
        "especialidad": " Tomografía Computada",
        "examen": "Tomografía Computada Parotidas"
    },
    {
        "especialidad": " Tomografía Computada",
        "examen": "Tomografía Computada Articulación temporo-mandibular",
        "etiquetas": "mandibula"
    },
    {
        "especialidad": " Tomografía Computada",
        "examen": "Tomografía Computada Glandulas Parotidas y Submaxilares"
    },
    {
        "especialidad": " Tomografía Computada",
        "examen": "Tomografía Computada Calcium Score de Coronarias"
    },
    {
        "especialidad": " Tomografía Computada",
        "examen": "Tomografía Computada Torax"
    },
    {
        "especialidad": " Tomografía Computada",
        "examen": "Tomografía Computada Estudio de mamas"
    },
    {
        "especialidad": " Tomografía Computada",
        "examen": "Tomografía Computada Corazón"
    },
    {
        "especialidad": " Tomografía Computada",
        "examen": "Tomografía Computada Pulmonar Alta Resolución"
    },
    {
        "especialidad": " Tomografía Computada",
        "examen": "Tomografía Computada Esternon"
    },
    {
        "especialidad": " Tomografía Computada",
        "examen": "Tomografía Computada Parrilla costal"
    },
    {
        "especialidad": " Tomografía Computada",
        "examen": "Tomografía Computada Timo"
    },
    {
        "especialidad": " Tomografía Computada",
        "examen": "Tomografía Computada Columna cervical"
    },
    {
        "especialidad": " Tomografía Computada",
        "examen": "Tomografía Computada Columna dorsal"
    },
    {
        "especialidad": " Tomografía Computada",
        "examen": "Tomografía Computada de Columna lumbar"
    },
    {
        "especialidad": " Tomografía Computada",
        "examen": "Tomografía Computada Sacro-Coxigea"
    },
    {
        "especialidad": " Tomografía Computada",
        "examen": "Tomografía Computada Pelvis",
        "etiquetas": "pelvis"
    },
    {
        "especialidad": " Tomografía Computada",
        "examen": "Tomografía Computada Brazo derecho"
    },
    {
        "especialidad": " Tomografía Computada",
        "examen": "Tomografía Computada Brazo izquierdo"
    },
    {
        "especialidad": " Tomografía Computada",
        "examen": "Tomografía Computada Clavícula izquierda"
    },
    {
        "especialidad": " Tomografía Computada",
        "examen": "Tomografía Computada Codo izquierdo"
    },
    {
        "especialidad": " Tomografía Computada",
        "examen": "Tomografía Computada Antebrazo izquierdo"
    },
    {
        "especialidad": " Tomografía Computada",
        "examen": "Tomografía Computada Muñeca izquierda"
    },
    {
        "especialidad": " Tomografía Computada",
        "examen": "Tomografía Computada Mano izquierda"
    },
    {
        "especialidad": " Tomografía Computada",
        "examen": "Tomografía Computada Dedos mano izquierda"
    },
    {
        "especialidad": " Tomografía Computada",
        "examen": "Tomografía Computada Hombro derecho"
    },
    {
        "especialidad": " Tomografía Computada",
        "examen": "Tomografía Computada Antebrazo Derecho"
    },
    {
        "especialidad": " Tomografía Computada",
        "examen": "Tomografía Computada Hombro izquierdo"
    },
    {
        "especialidad": " Tomografía Computada",
        "examen": "Tomografía Computada Dedos de la mano derecha"
    },
    {
        "especialidad": " Tomografía Computada",
        "examen": "Tomografía Computada Mano derecha"
    },
    {
        "especialidad": " Tomografía Computada",
        "examen": "Tomografía Computada Muñeca derecha"
    },
    {
        "especialidad": " Tomografía Computada",
        "examen": "Tomografía Computada Codo derecho"
    },
    {
        "especialidad": " Tomografía Computada",
        "examen": "Tomografía Computada Clavícula derecha"
    },
    {
        "especialidad": " Tomografía Computada",
        "examen": "Tomografía Computada Indice de Masa Corporal (IMC)"
    },
    {
        "especialidad": " Tomografía Computada",
        "examen": "Tomografía Computada Hipófisi o Silla turca"
    },
    {
        "especialidad": " Tomografía Computada",
        "examen": "Tomografía Computada Femur derecho"
    },
    {
        "especialidad": " Tomografía Computada",
        "examen": "Tomografía Computada Femur izquierdo"
    },
    {
        "especialidad": " Tomografía Computada",
        "examen": "Tomografía Computada Tobillo derecho"
    },
    {
        "especialidad": " Tomografía Computada",
        "examen": "Tomografía Computada Tobillo izquierdo"
    },
    {
        "especialidad": " Tomografía Computada",
        "examen": "Tomografía Computada Muslo derecho"
    },
    {
        "especialidad": " Tomografía Computada",
        "examen": "Tomografía Computada Muslo izquierdo"
    },
    {
        "especialidad": " Tomografía Computada",
        "examen": "Tomografía Computada Pie derecho"
    },
    {
        "especialidad": " Tomografía Computada",
        "examen": "Tomografía Computada Pie izquierdo"
    },
    {
        "especialidad": " Tomografía Computada",
        "examen": "Tomografía Computada Escanograma de miembros inferiores"
    },
    {
        "especialidad": " Tomografía Computada",
        "examen": "Tomografía Computada Rodilla derecha"
    },
    {
        "especialidad": " Tomografía Computada",
        "examen": "Tomografía Computada Rodilla izquierda"
    },
    {
        "especialidad": " Tomografía Computada",
        "examen": "Tomografía Computada Cadera derecha"
    },
    {
        "especialidad": " Tomografía Computada",
        "examen": "Tomografía Computada Cadera izquierda"
    },
    {
        "especialidad": " Tomografía Computada",
        "examen": "Tomografía Computada Calcaneo derecho"
    },
    {
        "especialidad": " Tomografía Computada",
        "examen": "Tomografía Computada Calcaneo izquierdo"
    },
    {
        "especialidad": " Tomografía Computada",
        "examen": "Tomografía Computada Pierna derecha"
    },
    {
        "especialidad": " Tomografía Computada",
        "examen": "Tomografía Computada Pierna izquierda"
    },
    {
        "especialidad": " Tomografía Computada",
        "examen": "Tomografía Computada Higado Tres Fases"
    },
    {
        "especialidad": " Tomografía Computada",
        "examen": "Tomografía Computada Volumetrica de Pancreas"
    },
    {
        "especialidad": " Tomografía Computada",
        "examen": "Tomografia Computada Volumetrica Hepatica"
    },
    {
        "especialidad": " Tomografía Computada",
        "examen": "Drenaje Percutáneo Guiado por Tomografía (TAC)"
    },
    {
        "especialidad": " Tomografía Computada",
        "examen": "Tomografía Computada Retroperitoneo"
    },
    {
        "especialidad": " Tomografía Computada",
        "examen": "TAC TRIFASICA RENAL",
        "etiquetas": "riñon"
    },
    {
        "especialidad": " Tomografía Computada",
        "examen": "TAC TRIFASICA DE PANCREAS"
    },
    {
        "especialidad": " Tomografía Computada",
        "examen": "Tomografía Computada Abdomen Completo"
    },
    {
        "especialidad": " Tomografía Computada",
        "examen": "Tomografía Computada Abdomen Completo Volumetrica de 64 cortes"
    },
    {
        "especialidad": " Tomografía Computada",
        "examen": "Tomografía Computada Colon Tomografia"
    },
    {
        "especialidad": " Tomografía Computada",
        "examen": "Tomografía Computada Abdomen superior"
    },
    {
        "especialidad": " Tomografía Computada",
        "examen": "Tomografía Computada Abdomen inferior"
    },
    {
        "especialidad": " Tomografía Computada",
        "examen": "Tomografía Computada Glándulas supra-renales"
    },
    {
        "especialidad": " Tomografía Computada",
        "examen": "Tomografía Computada Renal",
        "etiquetas": "riñon"
    },
    {
        "especialidad": " Tomografía Computada",
        "examen": "Tomografía Computada Urotomografía"
    },
    {
        "especialidad": " Tomografía Computada",
        "examen": "Tomografía Computada Enema"
    },
    {
        "especialidad": " Tomografía Computada",
        "examen": "Escanograma miembros inferiores(examen por TAC)"
    },
    {
        "especialidad": " Tomografía Computada",
        "examen": "Tomografía Computada Complemento reconstrucción 3D, (3 dimensiones)"
    },
    {
        "especialidad": " Tomografía Computada",
        "examen": "TAC HELICOIDAL COMPUTARIZADA VIRTUAL DE LARINGOSCOPIA CON 3D"
    },
    {
        "especialidad": " Tomografía Computada",
        "examen": "Tomografía Computada Biopsia"
    },
    {
        "especialidad": " Tomografía Computada",
        "examen": "Tomografía Computada Emergencia"
    },
    {
        "especialidad": " Tomografía Computada",
        "examen": "Tomografía Computada Placas Adicionales"
    },
    {
        "especialidad": " Tomografía Computada",
        "examen": "Tomografía Computada Complemento con Medio de Contraste"
    },
    {
        "especialidad": " Ultrasonido",
        "examen": "Procedimiento Nivel III GinecoObstetrico"
    },
    {
        "especialidad": " Ultrasonido",
        "examen": "USG Obstétrico"
    },
    {
        "especialidad": " Ultrasonido",
        "examen": "USG Codo derecho"
    },
    {
        "especialidad": " Ultrasonido",
        "examen": "USG Reno-vesical"
    },
    {
        "especialidad": " Ultrasonido",
        "examen": "USG Abdomen superior"
    },
    {
        "especialidad": " Ultrasonido",
        "examen": "USG Prostático transrectal"
    },
    {
        "especialidad": " Ultrasonido",
        "examen": "USG Tejidos blandos del cuello"
    },
    {
        "especialidad": " Ultrasonido",
        "examen": "USG Ultrasonido Obstétrico Nivel II"
    },
    {
        "especialidad": " Ultrasonido",
        "examen": "USG Prostático Abdominal"
    },
    {
        "especialidad": " Ultrasonido",
        "examen": "USG Codo Izquierdo"
    },
    {
        "especialidad": " Ultrasonido",
        "examen": "USG Rodilla derecha"
    },
    {
        "especialidad": " Ultrasonido",
        "examen": "USG Obstetrico 3D, 4D"
    },
    {
        "especialidad": " Ultrasonido",
        "examen": "USG Abdomen inferior"
    },
    {
        "especialidad": " Ultrasonido",
        "examen": "USG Inguinal"
    },
    {
        "especialidad": " Ultrasonido",
        "examen": "USG Pelvico transvaginal",
        "etiquetas": "pelvis, vagina"
    },
    {
        "especialidad": " Ultrasonido",
        "examen": "USG Maxilofacial"
    },
    {
        "especialidad": " Ultrasonido",
        "examen": "USG Maduración folícular (3 estudios)"
    },
    {
        "especialidad": " Ultrasonido",
        "examen": "USG Tiroides"
    },
    {
        "especialidad": " Ultrasonido",
        "examen": "USG Mamario"
    },
    {
        "especialidad": " Ultrasonido",
        "examen": "USG Dirección de Biopsia y/o aspiración"
    },
    {
        "especialidad": " Ultrasonido",
        "examen": "USG Fosa poplitea derecha"
    },
    {
        "especialidad": " Ultrasonido",
        "examen": "USG Transfontanelar"
    },
    {
        "especialidad": " Ultrasonido",
        "examen": "USG Hombro izquierdo"
    },
    {
        "especialidad": " Ultrasonido",
        "examen": "USG Testicular",
        "etiquetas": "testiculo"
    },
    {
        "especialidad": " Ultrasonido",
        "examen": "USG Renal Bilateral",
        "etiquetas": "riñon"
    },
    {
        "especialidad": " Ultrasonido",
        "examen": "USG Perfil Biofisico"
    },
    {
        "especialidad": " Ultrasonido",
        "examen": "USG Pélvico",
        "etiquetas": "pelvis"
    },
    {
        "especialidad": " Ultrasonido",
        "examen": "USG Ocular"
    },
    {
        "especialidad": " Ultrasonido",
        "examen": "USG Complemento mamario"
    },
    {
        "especialidad": " Ultrasonido",
        "examen": "USG Fosa poplitea izquierda"
    },
    {
        "especialidad": " Ultrasonido",
        "examen": "USG Rodilla izquierda"
    },
    {
        "especialidad": " Ultrasonido",
        "examen": "USG Pene"
    },
    {
        "especialidad": " Ultrasonido",
        "examen": "USG Transvaginal obstétrico",
        "etiquetas": "vagina"
    },
    {
        "especialidad": " Ultrasonido",
        "examen": "USG Vias biliares"
    },
    {
        "especialidad": " Ultrasonido",
        "examen": "USG Tejidos blandos derecho"
    },
    {
        "especialidad": " Ultrasonido",
        "examen": "USG Renal vesical prostático",
        "etiquetas": "riñon"
    },
    {
        "especialidad": " Ultrasonido",
        "examen": "USG Tejidos blandos izquierdo"
    },
    {
        "especialidad": " Ultrasonido",
        "examen": "USG Hombro derecho"
    },
    {
        "especialidad": " Cardiología",
        "examen": "Ecocardiograma transesofágico"
    },
    {
        "especialidad": " Cardiología",
        "examen": "Angiografía Coronaria Diagnóstica"
    },
    {
        "especialidad": " Cardiología",
        "examen": "Cateterismo Derecho"
    },
    {
        "especialidad": " Cardiología",
        "examen": "Medición de Presiones"
    },
    {
        "especialidad": " Cardiología",
        "examen": "Prueba de Mesa Basculante (Tilt table test)"
    },
    {
        "especialidad": " Rayos X",
        "examen": "Rayos X de Torax PA"
    },
    {
        "especialidad": " Ultrasonido",
        "examen": "USG General de Abdomen"
    },
    {
        "especialidad": " Laboratorio",
        "examen": "NT-Pro-BNP"
    },
    {
        "especialidad": " Laboratorio",
        "examen": "BNP"
    },
    {
        "especialidad": " Laboratorio",
        "examen": "Antígeno Prostático Libre"
    },
    {
        "especialidad": " Laboratorio",
        "examen": "Urea"
    },
    {
        "especialidad": " Laboratorio Clínico",
        "examen": "Coronavirus",
        "etiquetas": "COVID-19"
    },
    {
        "especialidad": " Laboratorio Clínico",
        "examen": "Calprotectina",
        "etiquetas": "heces"
    },
    {
        "especialidad": " Ecografía",
        "examen": "Ecografía de Cadera"
    },
    {
        "especialidad": " Ecografía",
        "examen": "Ecografía transfontanelar"
    },
    {
        "especialidad": " Ecografía",
        "examen": "Ecografía de Abdomen"
    },
    {
        "especialidad": " Ecografía",
        "examen": "Ecografía de píloro"
    },
    {
        "especialidad": " Ecografía",
        "examen": "Ecografía Renal"
    },
    {
        "especialidad": " Laboratorio Clínico",
        "examen": "AST"
    },
    {
        "especialidad": " Laboratorio Clínico",
        "examen": "ALT"
    },
    {
        "especialidad": " Laboratorio Clínico",
        "examen": "Inmunoglobulina E"
    },
    {
        "especialidad": " Laboratorio Clínico",
        "examen": "Hormona Paratiroidea / Paratohormona"
    },
    {
        "especialidad": " Laboratorio Clínico",
        "examen": "Biometría Completa"
    },
    {
        "especialidad": " Laboratorio Clínico",
        "examen": "Panel de alergías alimentarias"
    },
    {
        "especialidad": " Laboratorio Clínico",
        "examen": "Tamizaje Metabólico Básico (7 Enfermerdades)"
    },
    {
        "especialidad": " Laboratorio Clínico",
        "examen": "Tamizaje Metabólico Ampliado"
    },
    {
        "especialidad": " Laboratorio Clínico",
        "examen": "Panel Viral Respiratorio / Panel de enfermedades Respiratorias"
    },
    {
        "especialidad": " Laboratorio Clínico",
        "examen": "Test de Sudan en Heces"
    },
    {
        "especialidad": " Laboratorio Clínico",
        "examen": "Coproparasitario"
    },
    {
        "especialidad": " Laboratorio Clínico",
        "examen": "Citología Moco Fecal"
    },
    {
        "especialidad": " Laboratorio Clínico",
        "examen": "Glucosa 6 Fosfato"
    },
    {
        "especialidad": " Laboratorio Clínico",
        "examen": "Coronavirus RT-PCR"
    },
    {
        "especialidad": " Laboratorio Clínico",
        "examen": "Coronavirus IgG/IgM"
    },
    {
        "especialidad": " Laboratorio",
        "examen": "Tamizaje Auditivo"
    },
    {
        "especialidad": " Ecografía",
        "examen": "Eco Arterial y venoso de miembros inferiores"
    },
    {
        "especialidad": " Ecografía",
        "examen": "Ecografía de mama"
    }
]